Biogeographic realms compared,z statistic,P-value
Afrotropical - Australian,0.699,1
Afrotropical - Madagascan,0.931,1
Australian - Madagascan,0.614,1
Afrotropical - Nearctic,2.946,0.089
Australian - Nearctic,2.475,0.366
Madagascan - Nearctic,0.466,1
Afrotropical - Neotropical,-0.016,1
Australian - Neotropical,-0.782,1
Madagascan - Neotropical,-0.956,1
Nearctic - Neotropical,-3.235,0.033
Afrotropical - Oceanina,0.45,1
Australian - Oceanina,0.026,1
Madagascan - Oceanina,-0.503,1
Nearctic - Oceanina,-1.388,1
Neotropical - Oceanina,0.474,1
Afrotropical - Oriental,-0.014,1
Australian - Oriental,-0.714,1
Madagascan - Oriental,-0.938,1
Nearctic - Oriental,-2.961,0.084
Neotropical - Oriental,0.001,1
Oceanina - Oriental,-0.459,1
Afrotropical - Palearctic,0.596,1
Australian - Palearctic,-0.114,1
Madagascan - Palearctic,-0.664,1
Nearctic - Palearctic,-2.588,0.265
Neotropical - Palearctic,0.669,1
Oceanina - Palearctic,-0.091,1
Oriental - Palearctic,0.611,1
Afrotropical - Panamanian,-0.969,1
Australian - Panamanian,-1.745,1
Madagascan - Panamanian,-1.425,1
Nearctic - Panamanian,-3.974,0.002
Neotropical - Panamanian,-1.027,1
Oceanina - Panamanian,-1.089,1
Oriental - Panamanian,-0.955,1
Palearctic - Panamanian,-1.642,1
Afrotropical - Saharo-Arabian,-2.206,0.754
Australian - Saharo-Arabian,-3.084,0.056
Madagascan - Saharo-Arabian,-2.057,1
Nearctic - Saharo-Arabian,-5.309,0
Neotropical - Saharo-Arabian,-2.358,0.505
Oceanina - Saharo-Arabian,-1.905,1
Oriental - Saharo-Arabian,-2.192,0.78
Palearctic - Saharo-Arabian,-2.981,0.079
Panamanian - Saharo-Arabian,-1.23,1
Afrotropical - Sino-Japanese,2.957,0.085
Australian - Sino-Japanese,2.506,0.335
Madagascan - Sino-Japanese,0.575,1
Nearctic - Sino-Japanese,0.25,1
Neotropical - Sino-Japanese,3.202,0.038
Oceanina - Sino-Japanese,1.496,1
Oriental - Sino-Japanese,2.971,0.082
Palearctic - Sino-Japanese,2.61,0.249
Panamanian - Sino-Japanese,3.91,0.003
Saharo-Arabian - Sino-Japanese,5.147,0
