d,id,name,node,statistic,statistic.rel,rank
tables_output/aridity-ksi.csv,annual_aridity,Aridity,Saharo-Arabian,45.4126519503695,1,1
tables_output/aridity-ksi.csv,annual_aridity,Aridity,Australian,26.0228452762075,0.573030733916339,2
tables_output/aridity-ksi.csv,annual_aridity,Aridity,Palearctic,24.7798705658333,0.545660063915992,3
tables_output/aridity-ksi.csv,annual_aridity,Aridity,Neotropical,19.8136100249036,0.436301540957297,4
tables_output/aridity-ksi.csv,annual_aridity,Aridity,Afrotropical,18.8317569923102,0.41468084737467,5
tables_output/aridity-ksi.csv,annual_aridity,Aridity,Oriental,14.4519158452429,0.318235452557077,6
tables_output/aridity-ksi.csv,annual_aridity,Aridity,Australian,13.552039717549,0.29841991461674,7
tables_output/aridity-ksi.csv,annual_aridity,Aridity,Nearctic,13.5269071917105,0.297866488979629,8
tables_output/aridity-ksi.csv,annual_aridity,Aridity,Panamanian,8.72674526474271,0.192165506526243,9
tables_output/aridity-ksi.csv,annual_aridity,Aridity,Sino-Japanese,6.14314566865086,0.135273880841942,10
tables_output/aridity-ksi.csv,annual_aridity,Aridity,Madagascan,4.52341179779776,0.0996068629231629,11
tables_output/decomposition-ksi.csv,decomposition.constant..k.,Decomposition constant,Neotropical,4.36572150726941,1,1
tables_output/decomposition-ksi.csv,decomposition.constant..k.,Decomposition constant,Nearctic,4.11669254814477,0.942958120734457,2
tables_output/decomposition-ksi.csv,decomposition.constant..k.,Decomposition constant,Palearctic,3.31092428174766,0.758391087529199,3
tables_output/decomposition-ksi.csv,decomposition.constant..k.,Decomposition constant,Oriental,3.20502634405431,0.734134401087561,4
tables_output/decomposition-ksi.csv,decomposition.constant..k.,Decomposition constant,Australian,2.27274592972108,0.520588847899872,5
tables_output/decomposition-ksi.csv,decomposition.constant..k.,Decomposition constant,Afrotropical,1.50914818197443,0.345681276155965,6
tables_output/decomposition-ksi.csv,decomposition.constant..k.,Decomposition constant,Sino-Japanese,1.2319933904931,0.282196972125157,7
tables_output/fire-ksi.csv,sumfire,Fire frequency,Afrotropical,8.67949529940622,1,1
tables_output/fire-ksi.csv,sumfire,Fire frequency,Australian,5.9255009959114,0.682701100871242,2
tables_output/fire-ksi.csv,sumfire,Fire frequency,Nearctic,4.46401594235388,0.51431745606905,3
tables_output/fire-ksi.csv,sumfire,Fire frequency,Palearctic,4.2377728820292,0.488251071732145,4
tables_output/fire-ksi.csv,sumfire,Fire frequency,Saharo-Arabian,3.83295107427202,0.441609902655773,5
tables_output/fire-ksi.csv,sumfire,Fire frequency,Sino-Japanese,1.95433655776804,0.225167073700903,6
tables_output/fire-ksi.csv,sumfire,Fire frequency,Oriental,1.43733886618531,0.16560166422161,7
tables_output/fire-ksi.csv,sumfire,Fire frequency,Neotropical,1.39325229112069,0.160522270369339,8
tables_output/fire-ksi.csv,sumfire,Fire frequency,Panamanian,0.460735977171302,0.0530832682405879,9
tables_output/hwsd.soil-ksi.csv,T_GRAVEL,Gravel content,Australian,530098.460063204,1,1
tables_output/hwsd.soil-ksi.csv,T_GRAVEL,Gravel content,Nearctic,330058.328710188,0.622635894227716,2
tables_output/hwsd.soil-ksi.csv,T_GRAVEL,Gravel content,Neotropical,326958.647010386,0.616788524477892,3
tables_output/hwsd.soil-ksi.csv,T_GRAVEL,Gravel content,Palearctic,322989.815943403,0.609301554856229,4
tables_output/hwsd.soil-ksi.csv,T_GRAVEL,Gravel content,Saharo-Arabian,291534.263704521,0.54996247993205,5
tables_output/hwsd.soil-ksi.csv,T_GRAVEL,Gravel content,Sino-Japanese,237717.373195302,0.448440037284695,6
tables_output/hwsd.soil-ksi.csv,T_GRAVEL,Gravel content,Afrotropical,232752.120308794,0.439073375691457,7
tables_output/hwsd.soil-ksi.csv,T_GRAVEL,Gravel content,Oriental,230681.900046737,0.435168025236731,8
tables_output/hwsd.soil-ksi.csv,T_GRAVEL,Gravel content,Panamanian,184232.643191771,0.34754419616651,9
tables_output/hwsd.soil-ksi.csv,T_SAND,Sand fraction,Australian,406342.593230757,1,1
tables_output/hwsd.soil-ksi.csv,T_SAND,Sand fraction,Nearctic,267020.898544475,0.657132436994705,2
tables_output/hwsd.soil-ksi.csv,T_SAND,Sand fraction,Palearctic,266124.574590572,0.654926603865628,3
tables_output/hwsd.soil-ksi.csv,T_SAND,Sand fraction,Saharo-Arabian,180568.491670687,0.444375004439036,4
tables_output/hwsd.soil-ksi.csv,T_SAND,Sand fraction,Neotropical,172760.823179017,0.425160507554542,5
tables_output/hwsd.soil-ksi.csv,T_SAND,Sand fraction,Oriental,115573.423544504,0.284423600847748,6
tables_output/hwsd.soil-ksi.csv,T_SAND,Sand fraction,Sino-Japanese,101629.872240418,0.250108834105669,7
tables_output/hwsd.soil-ksi.csv,T_SAND,Sand fraction,Afrotropical,65085.042592711,0.160172828733585,8
tables_output/hwsd.soil-ksi.csv,T_SAND,Sand fraction,Panamanian,15246.2066038929,0.0375205721917387,9
tables_output/hwsd.soil-ksi.csv,T_SILT,Silt fraction,Australian,277857.747018426,1,1
tables_output/hwsd.soil-ksi.csv,T_SILT,Silt fraction,Nearctic,275353.833314314,0.990988504977889,2
tables_output/hwsd.soil-ksi.csv,T_SILT,Silt fraction,Saharo-Arabian,214242.070837788,0.771049478147465,3
tables_output/hwsd.soil-ksi.csv,T_SILT,Silt fraction,Palearctic,190551.431661157,0.685787723055713,4
tables_output/hwsd.soil-ksi.csv,T_SILT,Silt fraction,Afrotropical,149745.436392074,0.538928419304228,5
tables_output/hwsd.soil-ksi.csv,T_SILT,Silt fraction,Neotropical,135674.801740972,0.488288713188101,6
tables_output/hwsd.soil-ksi.csv,T_SILT,Silt fraction,Oriental,133069.212885014,0.478911292965281,7
tables_output/hwsd.soil-ksi.csv,T_SILT,Silt fraction,Sino-Japanese,107903.405005004,0.388340458968195,8
tables_output/hwsd.soil-ksi.csv,T_SILT,Silt fraction,Panamanian,67562.5827291474,0.243155296025153,9
tables_output/hwsd.soil-ksi.csv,T_CLAY,Clay fraction,Australian,451231.219805154,1,1
tables_output/hwsd.soil-ksi.csv,T_CLAY,Clay fraction,Nearctic,330937.518958266,0.733410066575552,2
tables_output/hwsd.soil-ksi.csv,T_CLAY,Clay fraction,Palearctic,313880.152411021,0.695608235056424,3
tables_output/hwsd.soil-ksi.csv,T_CLAY,Clay fraction,Saharo-Arabian,262000.799676626,0.580635355394426,4
tables_output/hwsd.soil-ksi.csv,T_CLAY,Clay fraction,Oriental,193193.925053443,0.428148400584663,5
tables_output/hwsd.soil-ksi.csv,T_CLAY,Clay fraction,Neotropical,151784.053833167,0.336377553615879,6
tables_output/hwsd.soil-ksi.csv,T_CLAY,Clay fraction,Sino-Japanese,150598.979839319,0.333751241557153,7
tables_output/hwsd.soil-ksi.csv,T_CLAY,Clay fraction,Panamanian,109535.010488813,0.242746968031403,8
tables_output/hwsd.soil-ksi.csv,T_CLAY,Clay fraction,Afrotropical,55209.851848771,0.122353794297768,9
tables_output/hwsd.soil-ksi.csv,T_REF_BULK_DENSITY,Reference bulk density,Neotropical,71.9136390510922,1,1
tables_output/hwsd.soil-ksi.csv,T_REF_BULK_DENSITY,Reference bulk density,Australian,61.413394627335,0.853988136849852,2
tables_output/hwsd.soil-ksi.csv,T_REF_BULK_DENSITY,Reference bulk density,Palearctic,48.9767044815288,0.681048895978306,3
tables_output/hwsd.soil-ksi.csv,T_REF_BULK_DENSITY,Reference bulk density,Nearctic,36.4031836083461,0.506206946118842,4
tables_output/hwsd.soil-ksi.csv,T_REF_BULK_DENSITY,Reference bulk density,Saharo-Arabian,28.0863641711576,0.390556847654493,5
tables_output/hwsd.soil-ksi.csv,T_REF_BULK_DENSITY,Reference bulk density,Oriental,27.7585675889373,0.385998649980927,6
tables_output/hwsd.soil-ksi.csv,T_REF_BULK_DENSITY,Reference bulk density,Panamanian,23.1370542956502,0.321733882486633,7
tables_output/hwsd.soil-ksi.csv,T_REF_BULK_DENSITY,Reference bulk density,Afrotropical,17.1746260485209,0.238822930881288,8
tables_output/hwsd.soil-ksi.csv,T_REF_BULK_DENSITY,Reference bulk density,Sino-Japanese,11.4839055439197,0.159690229773531,9
tables_output/hwsd.soil-ksi.csv,T_BULK_DENSITY,Bulk density,Australian,107.992797095725,1,1
tables_output/hwsd.soil-ksi.csv,T_BULK_DENSITY,Bulk density,Neotropical,69.8010656981295,0.646349271204242,2
tables_output/hwsd.soil-ksi.csv,T_BULK_DENSITY,Bulk density,Palearctic,63.0046150685754,0.583414975470336,3
tables_output/hwsd.soil-ksi.csv,T_BULK_DENSITY,Bulk density,Nearctic,56.0840706145852,0.519331586206367,4
tables_output/hwsd.soil-ksi.csv,T_BULK_DENSITY,Bulk density,Afrotropical,28.4478615600739,0.263423694219695,5
tables_output/hwsd.soil-ksi.csv,T_BULK_DENSITY,Bulk density,Panamanian,20.0030356093125,0.185225646036205,6
tables_output/hwsd.soil-ksi.csv,T_BULK_DENSITY,Bulk density,Saharo-Arabian,18.1316434486705,0.167896785121683,7
tables_output/hwsd.soil-ksi.csv,T_BULK_DENSITY,Bulk density,Sino-Japanese,16.9583567917757,0.157032295188575,8
tables_output/hwsd.soil-ksi.csv,T_BULK_DENSITY,Bulk density,Oriental,14.632427121624,0.135494472919835,9
tables_output/hwsd.soil-ksi.csv,T_OC,Organic carbon,Australian,134.681578535641,1,1
tables_output/hwsd.soil-ksi.csv,T_OC,Organic carbon,Palearctic,129.449736471461,0.961153989127058,2
tables_output/hwsd.soil-ksi.csv,T_OC,Organic carbon,Nearctic,71.7533437229104,0.532762865590575,3
tables_output/hwsd.soil-ksi.csv,T_OC,Organic carbon,Afrotropical,70.3377081733552,0.522251884319439,4
tables_output/hwsd.soil-ksi.csv,T_OC,Organic carbon,Saharo-Arabian,59.1568337983013,0.439234782080063,5
tables_output/hwsd.soil-ksi.csv,T_OC,Organic carbon,Neotropical,29.8249157970713,0.221447625735828,6
tables_output/hwsd.soil-ksi.csv,T_OC,Organic carbon,Oriental,19.5210136113376,0.144941972195341,7
tables_output/hwsd.soil-ksi.csv,T_OC,Organic carbon,Sino-Japanese,18.6687756587098,0.138614173235053,8
tables_output/hwsd.soil-ksi.csv,T_OC,Organic carbon,Panamanian,14.918552977479001,0.110769068343901,9
tables_output/hwsd.soil-ksi.csv,T_PH_H2O,pH (H2O),Australian,100.557753353785,1,1
tables_output/hwsd.soil-ksi.csv,T_PH_H2O,pH (H2O),Neotropical,91.5393681506329,0.910316361470176,2
tables_output/hwsd.soil-ksi.csv,T_PH_H2O,pH (H2O),Saharo-Arabian,71.9844773917277,0.715852084905577,3
tables_output/hwsd.soil-ksi.csv,T_PH_H2O,pH (H2O),Palearctic,66.0414655083664,0.656751601003033,4
tables_output/hwsd.soil-ksi.csv,T_PH_H2O,pH (H2O),Nearctic,29.8551741870125,0.296895795612848,5
tables_output/hwsd.soil-ksi.csv,T_PH_H2O,pH (H2O),Afrotropical,26.955269317084,0.268057592956053,6
tables_output/hwsd.soil-ksi.csv,T_PH_H2O,pH (H2O),Oriental,22.8074329451246,0.226809293012772,7
tables_output/hwsd.soil-ksi.csv,T_PH_H2O,pH (H2O),Sino-Japanese,13.8913726309418,0.138143227823207,8
tables_output/hwsd.soil-ksi.csv,T_PH_H2O,pH (H2O),Panamanian,12.3662045841854,0.12297614228391,9
tables_output/hwsd.soil-ksi.csv,T_CEC_CLAY,Cation exchange capacity (clay),Australian,459904.410473051,1,1
tables_output/hwsd.soil-ksi.csv,T_CEC_CLAY,Cation exchange capacity (clay),Palearctic,343459.713283757,0.74680673953633,2
tables_output/hwsd.soil-ksi.csv,T_CEC_CLAY,Cation exchange capacity (clay),Nearctic,274406.124671502,0.596659041363079,3
tables_output/hwsd.soil-ksi.csv,T_CEC_CLAY,Cation exchange capacity (clay),Neotropical,221783.575411949,0.482238418161344,4
tables_output/hwsd.soil-ksi.csv,T_CEC_CLAY,Cation exchange capacity (clay),Saharo-Arabian,192577.272454657,0.418733258627755,5
tables_output/hwsd.soil-ksi.csv,T_CEC_CLAY,Cation exchange capacity (clay),Oriental,163251.249161972,0.354967783401022,6
tables_output/hwsd.soil-ksi.csv,T_CEC_CLAY,Cation exchange capacity (clay),Afrotropical,146907.690713341,0.319430923835312,7
tables_output/hwsd.soil-ksi.csv,T_CEC_CLAY,Cation exchange capacity (clay),Sino-Japanese,141328.387193924,0.307299482187083,8
tables_output/hwsd.soil-ksi.csv,T_CEC_CLAY,Cation exchange capacity (clay),Panamanian,75711.0388640388,0.164623424215836,9
tables_output/hwsd.soil-ksi.csv,T_CEC_SOIL,Cation exchange capacity (soil),Australian,395087.163270305,1,1
tables_output/hwsd.soil-ksi.csv,T_CEC_SOIL,Cation exchange capacity (soil),Nearctic,256918.156610928,0.650282217433507,2
tables_output/hwsd.soil-ksi.csv,T_CEC_SOIL,Cation exchange capacity (soil),Palearctic,255126.5222514,0.645747434919447,3
tables_output/hwsd.soil-ksi.csv,T_CEC_SOIL,Cation exchange capacity (soil),Neotropical,248811.766741722,0.629764239066136,4
tables_output/hwsd.soil-ksi.csv,T_CEC_SOIL,Cation exchange capacity (soil),Oriental,228849.689477322,0.579238483941203,5
tables_output/hwsd.soil-ksi.csv,T_CEC_SOIL,Cation exchange capacity (soil),Saharo-Arabian,220354.612078712,0.557736703604195,6
tables_output/hwsd.soil-ksi.csv,T_CEC_SOIL,Cation exchange capacity (soil),Sino-Japanese,118917.92908449,0.300991629543606,7
tables_output/hwsd.soil-ksi.csv,T_CEC_SOIL,Cation exchange capacity (soil),Panamanian,118044.177029321,0.298780087037552,8
tables_output/hwsd.soil-ksi.csv,T_CEC_SOIL,Cation exchange capacity (soil),Afrotropical,76903.5113631299,0.194649481209581,9
tables_output/hwsd.soil-ksi.csv,T_BS,Base saturation,Australian,540276.243353176,1,1
tables_output/hwsd.soil-ksi.csv,T_BS,Base saturation,Palearctic,390074.495485731,0.721990833920012,2
tables_output/hwsd.soil-ksi.csv,T_BS,Base saturation,Saharo-Arabian,363344.595619952,0.672516328619016,3
tables_output/hwsd.soil-ksi.csv,T_BS,Base saturation,Nearctic,308187.566992353,0.570425908567837,4
tables_output/hwsd.soil-ksi.csv,T_BS,Base saturation,Neotropical,270907.282210113,0.501423643077014,5
tables_output/hwsd.soil-ksi.csv,T_BS,Base saturation,Afrotropical,253676.096815863,0.469530355881364,6
tables_output/hwsd.soil-ksi.csv,T_BS,Base saturation,Oriental,187275.198028331,0.346628600336051,7
tables_output/hwsd.soil-ksi.csv,T_BS,Base saturation,Sino-Japanese,149310.849424873,0.276360197698475,8
tables_output/hwsd.soil-ksi.csv,T_BS,Base saturation,Panamanian,65744.3315334233,0.121686511932094,9
tables_output/hwsd.soil-ksi.csv,T_TEB,Total exchangeable bases,Neotropical,99.9326572907112,1,1
tables_output/hwsd.soil-ksi.csv,T_TEB,Total exchangeable bases,Australian,83.7233034164496,0.837797229517199,2
tables_output/hwsd.soil-ksi.csv,T_TEB,Total exchangeable bases,Saharo-Arabian,59.5951033914197,0.596352633934804,3
tables_output/hwsd.soil-ksi.csv,T_TEB,Total exchangeable bases,Nearctic,59.3890685481075,0.59429089707222,4
tables_output/hwsd.soil-ksi.csv,T_TEB,Total exchangeable bases,Afrotropical,45.2760870113137,0.453065977016926,5
tables_output/hwsd.soil-ksi.csv,T_TEB,Total exchangeable bases,Palearctic,43.3578073731693,0.433870253715343,6
tables_output/hwsd.soil-ksi.csv,T_TEB,Total exchangeable bases,Oriental,24.4270582602249,0.244435191882918,7
tables_output/hwsd.soil-ksi.csv,T_TEB,Total exchangeable bases,Sino-Japanese,18.012656408066,0.180247947932235,8
tables_output/hwsd.soil-ksi.csv,T_TEB,Total exchangeable bases,Panamanian,10.3423784420282,0.103493479733472,9
tables_output/hwsd.soil-ksi.csv,T_CACO3,Calcium carbonate,Saharo-Arabian,73.765707638294,1,1
tables_output/hwsd.soil-ksi.csv,T_CACO3,Calcium carbonate,Australian,72.6097937081268,0.984329928266463,2
tables_output/hwsd.soil-ksi.csv,T_CACO3,Calcium carbonate,Neotropical,63.7015895228513,0.863566439777254,3
tables_output/hwsd.soil-ksi.csv,T_CACO3,Calcium carbonate,Palearctic,58.8039953655694,0.797172524310503,4
tables_output/hwsd.soil-ksi.csv,T_CACO3,Calcium carbonate,Afrotropical,26.1135468296666,0.354006592842746,5
tables_output/hwsd.soil-ksi.csv,T_CACO3,Calcium carbonate,Nearctic,22.337454466711,0.302816243236511,6
tables_output/hwsd.soil-ksi.csv,T_CACO3,Calcium carbonate,Oriental,22.2324338088121,0.3013925375437,7
tables_output/hwsd.soil-ksi.csv,T_CACO3,Calcium carbonate,Sino-Japanese,12.8136559626363,0.173707490551943,8
tables_output/hwsd.soil-ksi.csv,T_CACO3,Calcium carbonate,Panamanian,9.69209370329692,0.131390235566119,9
tables_output/hwsd.soil-ksi.csv,T_CASO4,Gypsum,Palearctic,58.8478334310988,1,1
tables_output/hwsd.soil-ksi.csv,T_CASO4,Gypsum,Saharo-Arabian,55.0885653250417,0.936118835870846,2
tables_output/hwsd.soil-ksi.csv,T_CASO4,Gypsum,Afrotropical,41.592643374487,0.706782917049702,3
tables_output/hwsd.soil-ksi.csv,T_CASO4,Gypsum,Nearctic,34.0803113655254,0.579126016685523,4
tables_output/hwsd.soil-ksi.csv,T_CASO4,Gypsum,Australian,27.3804704379386,0.465275760236723,5
tables_output/hwsd.soil-ksi.csv,T_CASO4,Gypsum,Neotropical,16.0173749480066,0.2721829167553,6
tables_output/hwsd.soil-ksi.csv,T_CASO4,Gypsum,Sino-Japanese,15.2270442399653,0.258752843599479,7
tables_output/hwsd.soil-ksi.csv,T_CASO4,Gypsum,Oriental,11.509459458248,0.195580003327119,8
tables_output/hwsd.soil-ksi.csv,T_CASO4,Gypsum,Panamanian,8.17690934924876,0.13895004917764,9
tables_output/hwsd.soil-ksi.csv,T_ESP,Sodicity (ESP),Australian,680803.147816373,1,1
tables_output/hwsd.soil-ksi.csv,T_ESP,Sodicity (ESP),Nearctic,446216.797508427,0.655427048096994,2
tables_output/hwsd.soil-ksi.csv,T_ESP,Sodicity (ESP),Palearctic,396073.722089036,0.581774222636035,3
tables_output/hwsd.soil-ksi.csv,T_ESP,Sodicity (ESP),Oriental,353298.626935571,0.518943879840671,4
tables_output/hwsd.soil-ksi.csv,T_ESP,Sodicity (ESP),Saharo-Arabian,337123.221121321,0.495184580451221,5
tables_output/hwsd.soil-ksi.csv,T_ESP,Sodicity (ESP),Panamanian,323927.278578986,0.475801675738368,6
tables_output/hwsd.soil-ksi.csv,T_ESP,Sodicity (ESP),Sino-Japanese,309287.653914024,0.454298213670195,7
tables_output/hwsd.soil-ksi.csv,T_ESP,Sodicity (ESP),Neotropical,274325.434768442,0.402943840151623,8
tables_output/hwsd.soil-ksi.csv,T_ESP,Sodicity (ESP),Afrotropical,34453.7783788565,0.0506075485834114,9
tables_output/hwsd.soil-ksi.csv,T_ECE,Salinity (Elcometer),Neotropical,178.182586150131,1,1
tables_output/hwsd.soil-ksi.csv,T_ECE,Salinity (Elcometer),Australian,90.9622222689196,0.510500067567083,2
tables_output/hwsd.soil-ksi.csv,T_ECE,Salinity (Elcometer),Palearctic,78.5968089301709,0.441102638750274,3
tables_output/hwsd.soil-ksi.csv,T_ECE,Salinity (Elcometer),Saharo-Arabian,69.0317642426163,0.387421496870924,4
tables_output/hwsd.soil-ksi.csv,T_ECE,Salinity (Elcometer),Nearctic,41.2497762103875,0.231502848295353,5
tables_output/hwsd.soil-ksi.csv,T_ECE,Salinity (Elcometer),Afrotropical,35.4459318066005,0.19893039253979,6
tables_output/hwsd.soil-ksi.csv,T_ECE,Salinity (Elcometer),Panamanian,25.0296697758668,0.140472031059071,7
tables_output/hwsd.soil-ksi.csv,T_ECE,Salinity (Elcometer),Oriental,17.9485529724874,0.100731240691301,8
tables_output/hwsd.soil-ksi.csv,T_ECE,Salinity (Elcometer),Sino-Japanese,17.0403737847805,0.0956343386464421,9
tables_output/plant-ksi.csv,leaf_area,Leaf area,Neotropical,10.4917285776345,1,1
tables_output/plant-ksi.csv,leaf_area,Leaf area,Australian,9.82805629724733,0.936743285391322,2
tables_output/plant-ksi.csv,leaf_area,Leaf area,Panamanian,8.39979917340306,0.800611559024617,3
tables_output/plant-ksi.csv,leaf_area,Leaf area,Oriental,7.02165912985113,0.669256650883956,4
tables_output/plant-ksi.csv,leaf_area,Leaf area,Nearctic,6.76235032985513,0.644541104911028,5
tables_output/plant-ksi.csv,leaf_area,Leaf area,Palearctic,5.34785145405484,0.5097207208977,6
tables_output/plant-ksi.csv,leaf_area,Leaf area,Afrotropical,3.0058117654443,0.28649347371146,7
tables_output/plant-ksi.csv,leaf_area,Leaf area,Sino-Japanese,2.81865228749037,0.268654708957967,8
tables_output/plant-ksi.csv,leaf_area,Leaf area,Saharo-Arabian,2.11537987533566,0.201623579916572,9
tables_output/plant-ksi.csv,sla,Specific leaf area,Australian,6.8809975825829,1,1
tables_output/plant-ksi.csv,sla,Specific leaf area,Palearctic,5.56069510619787,0.808123391915299,2
tables_output/plant-ksi.csv,sla,Specific leaf area,Neotropical,5.5031836646337,0.799765382647902,3
tables_output/plant-ksi.csv,sla,Specific leaf area,Nearctic,4.61859449043554,0.67121001497313,4
tables_output/plant-ksi.csv,sla,Specific leaf area,Panamanian,3.02718997634015,0.439934753647136,5
tables_output/plant-ksi.csv,sla,Specific leaf area,Afrotropical,2.16977572967497,0.315328657456163,6
tables_output/plant-ksi.csv,sla,Specific leaf area,Oriental,1.65762453598229,0.240898869108464,7
tables_output/plant-ksi.csv,sla,Specific leaf area,Sino-Japanese,0.952044303558297,0.138358470865925,8
tables_output/plant-ksi.csv,sla,Specific leaf area,Saharo-Arabian,0.658946373712564,0.0957632037802893,9
tables_output/plant-ksi.csv,seed_mass,Seed mass,Nearctic,8.28285525105841,1,1
tables_output/plant-ksi.csv,seed_mass,Seed mass,Oriental,7.51970302867051,0.907863629236986,2
tables_output/plant-ksi.csv,seed_mass,Seed mass,Neotropical,7.38320450427339,0.891383982996677,3
tables_output/plant-ksi.csv,seed_mass,Seed mass,Palearctic,6.03543539100428,0.728666046679139,4
tables_output/plant-ksi.csv,seed_mass,Seed mass,Afrotropical,5.36961506539864,0.648280683730709,5
tables_output/plant-ksi.csv,seed_mass,Seed mass,Australian,4.10820068706945,0.495988468052063,6
tables_output/plant-ksi.csv,seed_mass,Seed mass,Sino-Japanese,2.59655591281604,0.313485607814316,7
tables_output/plant-ksi.csv,seed_mass,Seed mass,Panamanian,1.81261319932571,0.21883917373711,8
tables_output/plant-ksi.csv,seed_mass,Seed mass,Saharo-Arabian,0.658494710921519,0.0795009318601064,9
tables_output/plant-ksi.csv,leaf_n_mass,Leaf N mass,Australian,8.87828409771864,1,1
tables_output/plant-ksi.csv,leaf_n_mass,Leaf N mass,Afrotropical,6.76051746812856,0.761466674609538,2
tables_output/plant-ksi.csv,leaf_n_mass,Leaf N mass,Palearctic,5.21205451864634,0.587056514668823,3
tables_output/plant-ksi.csv,leaf_n_mass,Leaf N mass,Neotropical,4.59239581557238,0.517261642568122,4
tables_output/plant-ksi.csv,leaf_n_mass,Leaf N mass,Nearctic,4.45086144921134,0.501320007359871,5
tables_output/plant-ksi.csv,leaf_n_mass,Leaf N mass,Oriental,3.61365062760549,0.407021287878594,6
tables_output/plant-ksi.csv,leaf_n_mass,Leaf N mass,Sino-Japanese,2.17126583671968,0.244559175266491,7
tables_output/plant-ksi.csv,leaf_n_mass,Leaf N mass,Panamanian,1.29055814768322,0.145361213211778,8
tables_output/plant-ksi.csv,leaf_n_mass,Leaf N mass,Saharo-Arabian,1.03445590311556,0.11651529639397,9
tables_output/plant-ksi.csv,leaf_p_mass,Leaf P mass,Neotropical,6.8381367792808,1,1
tables_output/plant-ksi.csv,leaf_p_mass,Leaf P mass,Palearctic,6.06893045629054,0.887512293506483,2
tables_output/plant-ksi.csv,leaf_p_mass,Leaf P mass,Australian,4.86871170231453,0.711993904109446,3
tables_output/plant-ksi.csv,leaf_p_mass,Leaf P mass,Nearctic,2.96239646110928,0.433216906407194,4
tables_output/plant-ksi.csv,leaf_p_mass,Leaf P mass,Oriental,2.5699458865785,0.375825457947157,5
tables_output/plant-ksi.csv,leaf_p_mass,Leaf P mass,Afrotropical,2.5016407880761,0.365836611466437,6
tables_output/plant-ksi.csv,leaf_p_mass,Leaf P mass,Sino-Japanese,1.61439746126863,0.236087331005161,7
tables_output/plant-ksi.csv,leaf_p_mass,Leaf P mass,Panamanian,1.38617705541087,0.20271268331615,8
tables_output/plant-ksi.csv,leaf_p_mass,Leaf P mass,Saharo-Arabian,0.96471299196902,0.141078340943991,9
tables_output/plant-ksi.csv,height,Plant height,Nearctic,13.4026937740292,1,1
tables_output/plant-ksi.csv,height,Plant height,Australian,10.9476362586418,0.816823576157153,2
tables_output/plant-ksi.csv,height,Plant height,Neotropical,10.334100019074,0.771046492093904,3
tables_output/plant-ksi.csv,height,Plant height,Panamanian,9.96894660556965,0.743801714315577,4
tables_output/plant-ksi.csv,height,Plant height,Palearctic,6.92714958171203,0.516847560535552,5
tables_output/plant-ksi.csv,height,Plant height,Afrotropical,2.73698377080593,0.20421146800425,6
tables_output/plant-ksi.csv,height,Plant height,Oriental,2.17471718533209,0.162259708533079,7
tables_output/plant-ksi.csv,height,Plant height,Saharo-Arabian,1.84346848372752,0.137544624596263,8
tables_output/plant-ksi.csv,height,Plant height,Sino-Japanese,1.05786123384553,0.0789290012650572,9
tables_output/plant-ksi.csv,photosynthesis,Photosynthesis,Oriental,495.014430265771,1,1
tables_output/plant-ksi.csv,photosynthesis,Photosynthesis,Australian,35.2944094355942,0.0712997587093468,2
tables_output/plant-ksi.csv,photosynthesis,Photosynthesis,Palearctic,17.3297128351731,0.0350085003095139,3
tables_output/plant-ksi.csv,photosynthesis,Photosynthesis,Afrotropical,3.64483383427056,0.00736308602622688,4
tables_output/plant-ksi.csv,photosynthesis,Photosynthesis,Nearctic,2.27903653056722,0.0046039799877018,5
tables_output/plant-ksi.csv,photosynthesis,Photosynthesis,Neotropical,1.88256050999189,0.00380304167896914,6
tables_output/plant-ksi.csv,photosynthesis,Photosynthesis,Sino-Japanese,1.68067426737639,0.00339520257313315,7
tables_output/plant-ksi.csv,photosynthesis,Photosynthesis,Panamanian,0.907094265078576,0.00183246024684889,8
tables_output/plant-ksi.csv,photosynthesis,Photosynthesis,Saharo-Arabian,0.785077967582888,0.00158596986185106,9
tables_output/plant-ksi.csv,dispersal_synd,Dispersal syndrome,Neotropical,277.62829675256,1,1
tables_output/plant-ksi.csv,dispersal_synd,Dispersal syndrome,Palearctic,75.6969921478635,0.272655896510901,2
tables_output/plant-ksi.csv,dispersal_synd,Dispersal syndrome,Nearctic,38.74710186958,0.139564670902815,3
tables_output/plant-ksi.csv,dispersal_synd,Dispersal syndrome,Panamanian,32.5465731027146,0.11723074875081,4
tables_output/plant-ksi.csv,dispersal_synd,Dispersal syndrome,Australian,24.3212301437156,0.0876035707750363,5
tables_output/plant-ksi.csv,dispersal_synd,Dispersal syndrome,Oriental,7.63902923887093,0.0275153121213697,6
tables_output/plant-ksi.csv,dispersal_synd,Dispersal syndrome,Sino-Japanese,6.29470684213066,0.022673145769939,7
tables_output/plant-ksi.csv,dispersal_synd,Dispersal syndrome,Afrotropical,0.997055154815487,0.00359133116644852,8
tables_output/plant-ksi.csv,dispersal_synd,Dispersal syndrome,Saharo-Arabian,6.727767611628899e-31,2.42330039492521e-33,9
tables_output/plant-ksi.csv,n_fixer,Nitrogen fixing capacity,Australian,431.055295112313,1,1
tables_output/plant-ksi.csv,n_fixer,Nitrogen fixing capacity,Nearctic,84.7256169177002,0.196553940708754,2
tables_output/plant-ksi.csv,n_fixer,Nitrogen fixing capacity,Palearctic,35.6244173789241,0.0826446578498519,3
tables_output/plant-ksi.csv,n_fixer,Nitrogen fixing capacity,Oriental,32.8811006834019,0.0762804704088709,4
tables_output/plant-ksi.csv,n_fixer,Nitrogen fixing capacity,Saharo-Arabian,23.9778442494169,0.0556259127803299,5
tables_output/plant-ksi.csv,n_fixer,Nitrogen fixing capacity,Sino-Japanese,17.0001539740026,0.0394384529473721,6
tables_output/plant-ksi.csv,n_fixer,Nitrogen fixing capacity,Afrotropical,8.88347567850595,0.0206086684915709,7
tables_output/plant-ksi.csv,n_fixer,Nitrogen fixing capacity,Panamanian,4.88587817711088,0.0113346900792341,8
tables_output/plant-ksi.csv,n_fixer,Nitrogen fixing capacity,Neotropical,3.96515186886169,0.00919870817925703,9
tables_output/plant-ksi.csv,compound_leaf,Leaf form,Panamanian,151.950862885102,1,1
tables_output/plant-ksi.csv,compound_leaf,Leaf form,Neotropical,120.689700142574,0.794267948539614,2
tables_output/plant-ksi.csv,compound_leaf,Leaf form,Nearctic,48.7483049941654,0.3208162432814,3
tables_output/plant-ksi.csv,compound_leaf,Leaf form,Saharo-Arabian,26.6399854005353,0.175319737543572,4
tables_output/plant-ksi.csv,compound_leaf,Leaf form,Afrotropical,14.6573085863961,0.0964608446974026,5
tables_output/plant-ksi.csv,compound_leaf,Leaf form,Australian,14.5559088676252,0.09579352555985,6
tables_output/plant-ksi.csv,compound_leaf,Leaf form,Sino-Japanese,11.4603832016246,0.0754216394959891,7
tables_output/plant-ksi.csv,compound_leaf,Leaf form,Palearctic,10.3188653153845,0.0679092248603231,8
tables_output/plant-ksi.csv,compound_leaf,Leaf form,Oriental,7.00476757139209,0.0460988995941983,9
tables_output/plant-ksi.csv,evergreen_decid,Phenology,Palearctic,501.98806581599,1,1
tables_output/plant-ksi.csv,evergreen_decid,Phenology,Nearctic,442.513790694753,0.881522531766647,2
tables_output/plant-ksi.csv,evergreen_decid,Phenology,Oriental,279.123524040791,0.556036175057411,3
tables_output/plant-ksi.csv,evergreen_decid,Phenology,Australian,133.461777320113,0.265866434699337,4
tables_output/plant-ksi.csv,evergreen_decid,Phenology,Panamanian,127.236107301569,0.253464406757847,5
tables_output/plant-ksi.csv,evergreen_decid,Phenology,Afrotropical,64.2913885555433,0.128073539858038,6
tables_output/plant-ksi.csv,evergreen_decid,Phenology,Saharo-Arabian,30.8987211772982,0.0615527007142527,7
tables_output/plant-ksi.csv,evergreen_decid,Phenology,Sino-Japanese,4.84898299813957,0.00965955832088851,8
tables_output/plant-ksi.csv,evergreen_decid,Phenology,Neotropical,1.64304255312047,0.00327307094532153,9
tables_output/plant-ksi.csv,woodiness,Life form,Palearctic,1824.13284226841,1,1
tables_output/plant-ksi.csv,woodiness,Life form,Nearctic,733.360074476879,0.402032164261077,2
tables_output/plant-ksi.csv,woodiness,Life form,Neotropical,435.922486067113,0.238975186437091,3
tables_output/plant-ksi.csv,woodiness,Life form,Panamanian,385.788616329141,0.211491513879763,4
tables_output/plant-ksi.csv,woodiness,Life form,Oriental,230.37795044794,0.126294502850709,5
tables_output/plant-ksi.csv,woodiness,Life form,Afrotropical,62.0713826153556,0.0340278850185968,6
tables_output/plant-ksi.csv,woodiness,Life form,Sino-Japanese,33.992905349762,0.018635104068128,7
tables_output/plant-ksi.csv,woodiness,Life form,Australian,2.65297905997636,0.00145437821111605,8
tables_output/plant-ksi.csv,woodiness,Life form,Saharo-Arabian,1.03469513311071,5.6722575743113e-4,9
tables_output/seds-ksi.csv,al,Aluminium,Palearctic,9685.5490975919,1,1
tables_output/seds-ksi.csv,al,Aluminium,Australian,8.45841204784951,8.7330227358534e-4,2
tables_output/seds-ksi.csv,al,Aluminium,Nearctic,6.49979578887353,6.7108180686313e-4,3
tables_output/seds-ksi.csv,al,Aluminium,Neotropical,3.45491286407389,3.567080017108e-4,4
tables_output/seds-ksi.csv,ba,Barium,Nearctic,23.4291073203075,1,1
tables_output/seds-ksi.csv,ba,Barium,Australian,21.7327357504142,0.927595552544891,2
tables_output/seds-ksi.csv,ba,Barium,Palearctic,8.19417009292732,0.34974316267803,3
tables_output/seds-ksi.csv,ba,Barium,Neotropical,3.75542506121455,0.160288866744807,4
tables_output/seds-ksi.csv,ca,Calcium,Palearctic,4996.53041374503,1,1
tables_output/seds-ksi.csv,ca,Calcium,Australian,21.5823102469753,0.00431945939678546,2
tables_output/seds-ksi.csv,ca,Calcium,Nearctic,16.8489339289586,0.00337212676272492,3
tables_output/seds-ksi.csv,ca,Calcium,Neotropical,2.30428118307481,4.6117625477389e-4,4
tables_output/seds-ksi.csv,co,Cobalt,Australian,7.9410552704476,1,1
tables_output/seds-ksi.csv,co,Cobalt,Nearctic,7.19446837152693,0.905983918573257,2
tables_output/seds-ksi.csv,co,Cobalt,Neotropical,4.960620088772,0.624680211864638,3
tables_output/seds-ksi.csv,co,Cobalt,Palearctic,1.79300147597772,0.225788817092147,4
tables_output/seds-ksi.csv,cr,Chromium,Nearctic,11.4597547445588,1,1
tables_output/seds-ksi.csv,cr,Chromium,Palearctic,9.08794792355303,0.793031624683595,2
tables_output/seds-ksi.csv,cr,Chromium,Australian,7.57092991018744,0.660653746868551,3
tables_output/seds-ksi.csv,cr,Chromium,Neotropical,1.63502268190508,0.142675189683392,4
tables_output/seds-ksi.csv,cu,Copper,Australian,8.91255157687002,1,1
tables_output/seds-ksi.csv,cu,Copper,Nearctic,8.12684627905432,0.911842832993553,2
tables_output/seds-ksi.csv,cu,Copper,Palearctic,1.4716484921904,0.165120894897219,3
tables_output/seds-ksi.csv,cu,Copper,Neotropical,0.877558112370904,0.0984631735145696,4
tables_output/seds-ksi.csv,fe,Iron,Palearctic,5049.06254930163,1,1
tables_output/seds-ksi.csv,fe,Iron,Nearctic,3.37988849833866,6.6940911611526e-4,2
tables_output/seds-ksi.csv,fe,Iron,Australian,2.63961896061054,5.2279387209723e-4,3
tables_output/seds-ksi.csv,fe,Iron,Neotropical,1.32571345696612,2.6256625740346e-4,4
tables_output/seds-ksi.csv,k,Lead,Palearctic,7006.54726102209,1,1
tables_output/seds-ksi.csv,k,Lead,Australian,15.0192199427226,0.00214359789254196,2
tables_output/seds-ksi.csv,k,Lead,Nearctic,11.4187030397979,0.00162971897775113,3
tables_output/seds-ksi.csv,k,Lead,Neotropical,4.22333151810669,6.0276929003267e-4,4
tables_output/seds-ksi.csv,mg,Magnesium,Palearctic,20748.0529350048,1,1
tables_output/seds-ksi.csv,mg,Magnesium,Australian,17.5271147916152,8.4475949847055e-4,2
tables_output/seds-ksi.csv,mg,Magnesium,Nearctic,15.2209018676176,7.3360627695034e-4,3
tables_output/seds-ksi.csv,mg,Magnesium,Neotropical,2.79644924048642,1.3478128522452e-4,4
tables_output/seds-ksi.csv,mn,Manganese,Palearctic,5576.00147764998,1,1
tables_output/seds-ksi.csv,mn,Manganese,Australian,13.6376914934271,0.00244578333561969,2
tables_output/seds-ksi.csv,mn,Manganese,Nearctic,11.9197880172116,0.00213769455854506,3
tables_output/seds-ksi.csv,mn,Manganese,Neotropical,1.45532551925572,2.6099805121807e-4,4
tables_output/seds-ksi.csv,na,Niquel,Palearctic,27286.8908660539,1,1
tables_output/seds-ksi.csv,na,Niquel,Australian,21.5768001930692,7.9073868470342e-4,2
tables_output/seds-ksi.csv,na,Niquel,Nearctic,20.5514288667774,7.531612512272e-4,3
tables_output/seds-ksi.csv,na,Niquel,Neotropical,2.89442299219609,1.0607375557751e-4,4
tables_output/seds-ksi.csv,ni,Potasium,Nearctic,12.6942091556278,1,1
tables_output/seds-ksi.csv,ni,Potasium,Australian,10.4645994665999,0.82436009508797,2
tables_output/seds-ksi.csv,ni,Potasium,Palearctic,7.69641905298769,0.606293701216951,3
tables_output/seds-ksi.csv,ni,Potasium,Neotropical,2.11651991807438,0.166731136388756,4
tables_output/seds-ksi.csv,pb,Sodium,Neotropical,9.55655847410759,1,1
tables_output/seds-ksi.csv,pb,Sodium,Palearctic,7.54581599957964,0.789595545302649,2
tables_output/seds-ksi.csv,pb,Sodium,Australian,7.29801050960521,0.763665134198502,3
tables_output/seds-ksi.csv,pb,Sodium,Nearctic,4.97139580034806,0.520207751966097,4
tables_output/seds-ksi.csv,sc,Scandium,Australian,5.82074953224105,1,1
tables_output/seds-ksi.csv,sc,Scandium,Nearctic,5.72565940790718,0.983663594558199,2
tables_output/seds-ksi.csv,sc,Scandium,Neotropical,3.93900961068752,0.67671862341257,3
tables_output/seds-ksi.csv,sc,Scandium,Palearctic,3.56116706774151,0.61180558414621,4
tables_output/seds-ksi.csv,sr,Strontium,Australian,1090.13632361808,1,1
tables_output/seds-ksi.csv,sr,Strontium,Palearctic,8.60361294696092,0.00789223582460419,2
tables_output/seds-ksi.csv,sr,Strontium,Neotropical,5.56606277362418,0.00510584103385422,3
tables_output/seds-ksi.csv,th,Thorium,Australian,4.04282188956838,1,1
tables_output/seds-ksi.csv,th,Thorium,Palearctic,3.62020189247647,0.895464106845175,2
tables_output/seds-ksi.csv,th,Thorium,Nearctic,2.28427721891985,0.565020493436511,3
tables_output/seds-ksi.csv,ti,Titatium,Palearctic,2862.08981234886,1,1
tables_output/seds-ksi.csv,ti,Titatium,Nearctic,7.82100437502885,0.00273262017889309,2
tables_output/seds-ksi.csv,ti,Titatium,Australian,4.93913013381218,0.00172570759747009,3
tables_output/seds-ksi.csv,ti,Titatium,Neotropical,3.31432381108938,0.0011580083185333,4
tables_output/seds-ksi.csv,u,Uranium,Nearctic,25.6642888757553,1,1
tables_output/seds-ksi.csv,u,Uranium,Australian,22.8511695736311,0.890387794661174,2
tables_output/seds-ksi.csv,u,Uranium,Palearctic,10.1653277792778,0.39608842576896,3
tables_output/seds-ksi.csv,v,Vanadium,Australian,10633.3794792481,1,1
tables_output/seds-ksi.csv,v,Vanadium,Nearctic,7.05231475653326,6.6322421486944e-4,2
tables_output/seds-ksi.csv,v,Vanadium,Neotropical,2.65514397702286,2.4969897690612e-4,3
tables_output/seds-ksi.csv,v,Vanadium,Palearctic,2.31464235646636,2.1767701989603e-4,4
tables_output/seds-ksi.csv,zn,Zinc,Australian,17.2028905533908,1,1
tables_output/seds-ksi.csv,zn,Zinc,Nearctic,13.280684519075,0.772003081566853,2
tables_output/seds-ksi.csv,zn,Zinc,Palearctic,5.18972580801127,0.301677546102177,3
tables_output/seds-ksi.csv,zn,Zinc,Neotropical,2.93234500881215,0.170456528785749,4
tables_output/soil_n-ksi.csv,total_n,Total nitrogen,Afrotropical,11.5828123397227,1,1
tables_output/soil_n-ksi.csv,total_n,Total nitrogen,Palearctic,11.3662125216974,0.981299894043652,2
tables_output/soil_n-ksi.csv,total_n,Total nitrogen,Panamanian,4.02586691587981,0.347572489115903,3
tables_output/soil_n-ksi.csv,total_n,Total nitrogen,Nearctic,3.92675092219246,0.33901532779961,4
tables_output/soil_n-ksi.csv,total_n,Total nitrogen,Neotropical,3.55623887734454,0.307027237689813,5
tables_output/soil_n-ksi.csv,total_n,Total nitrogen,Madagascan,3.55264071741215,0.306716591205449,6
tables_output/soil_n-ksi.csv,total_n,Total nitrogen,Australian,3.20514025090572,0.276715201533037,7
tables_output/soil_n-ksi.csv,total_n,Total nitrogen,Australian,2.82871019138296,0.244216180700954,8
tables_output/soil_n-ksi.csv,total_n,Total nitrogen,Saharo-Arabian,2.63136811438039,0.227178688318747,9
tables_output/soil_n-ksi.csv,total_n,Total nitrogen,Oriental,1.55192346237901,0.133985030307084,10
tables_output/soil_n-ksi.csv,total_n,Total nitrogen,Sino-Japanese,1.36696231573401,0.118016443299015,11
tables_output/soil_p-ksi.csv,secondary_p,Secondary phosphorus,North America,20.2530899658178,1,1
tables_output/soil_p-ksi.csv,secondary_p,Secondary phosphorus,South America,17.4772789533331,0.862943826489213,2
tables_output/soil_p-ksi.csv,secondary_p,Secondary phosphorus,Africa,17.2412243395896,0.851288587010109,3
tables_output/soil_p-ksi.csv,secondary_p,Secondary phosphorus,Europe,15.6879388549708,0.774594833748734,4
tables_output/soil_p-ksi.csv,secondary_p,Secondary phosphorus,Asia,9.03288230647649,0.446000206473272,5
tables_output/soil_p-ksi.csv,secondary_p,Secondary phosphorus,Australian,8.18830897983159,0.404299244888135,6
tables_output/soil_p-ksi.csv,organic_p,Organic phosphorus,Africa,20.3661162246784,1,1
tables_output/soil_p-ksi.csv,organic_p,Organic phosphorus,North America,19.6581826800155,0.965239639367024,2
tables_output/soil_p-ksi.csv,organic_p,Organic phosphorus,South America,18.4153497149019,0.904215094902942,3
tables_output/soil_p-ksi.csv,organic_p,Organic phosphorus,Europe,17.2347928759978,0.846248380686039,4
tables_output/soil_p-ksi.csv,organic_p,Organic phosphorus,Australian,11.4683718344833,0.563110399055202,5
tables_output/soil_p-ksi.csv,organic_p,Organic phosphorus,Asia,10.1098243634627,0.496404137732077,6
tables_output/soil_p-ksi.csv,lab_inorg_p,Labile inorganic phosphorus,South America,21.4634587149218,1,1
tables_output/soil_p-ksi.csv,lab_inorg_p,Labile inorganic phosphorus,Europe,10.4463328309272,0.486703143686003,2
tables_output/soil_p-ksi.csv,lab_inorg_p,Labile inorganic phosphorus,North America,10.3792011281637,0.483575423049029,3
tables_output/soil_p-ksi.csv,lab_inorg_p,Labile inorganic phosphorus,Asia,10.2640193212167,0.47820900897398,4
tables_output/soil_p-ksi.csv,lab_inorg_p,Labile inorganic phosphorus,Africa,8.98950031674282,0.418828131856174,5
tables_output/soil_p-ksi.csv,lab_inorg_p,Labile inorganic phosphorus,Australian,8.27457263844587,0.385519069798999,6
tables_output/terrestrial.climate-ksi.csv,dtr,Diurnal temperature range,Palearctic,116.550160432825,1,1
tables_output/terrestrial.climate-ksi.csv,dtr,Diurnal temperature range,Australian,82.0574598276319,0.704052740235622,2
tables_output/terrestrial.climate-ksi.csv,dtr,Diurnal temperature range,Saharo-Arabian,81.9666142425358,0.703273285408974,3
tables_output/terrestrial.climate-ksi.csv,dtr,Diurnal temperature range,Afrotropical,69.7011105868482,0.598035303666709,4
tables_output/terrestrial.climate-ksi.csv,dtr,Diurnal temperature range,Neotropical,36.7884533762452,0.315644811123607,5
tables_output/terrestrial.climate-ksi.csv,dtr,Diurnal temperature range,Nearctic,22.8138791965556,0.195743009806534,6
tables_output/terrestrial.climate-ksi.csv,dtr,Diurnal temperature range,Sino-Japanese,16.3929859017948,0.140651766080091,7
tables_output/terrestrial.climate-ksi.csv,dtr,Diurnal temperature range,Oriental,14.5767093164823,0.125068118845566,8
tables_output/terrestrial.climate-ksi.csv,dtr,Diurnal temperature range,Panamanian,10.5096246779931,0.0901725457859871,9
tables_output/terrestrial.climate-ksi.csv,frs,No. days ground frost,Palearctic,227.44751091377,1,1
tables_output/terrestrial.climate-ksi.csv,frs,No. days ground frost,Afrotropical,164.109821017066,0.72152832254684,2
tables_output/terrestrial.climate-ksi.csv,frs,No. days ground frost,Neotropical,105.57813110018,0.464186794904987,3
tables_output/terrestrial.climate-ksi.csv,frs,No. days ground frost,Nearctic,103.036029826922,0.453010144683384,4
tables_output/terrestrial.climate-ksi.csv,frs,No. days ground frost,Australian,98.8130727166504,0.434443412107124,5
tables_output/terrestrial.climate-ksi.csv,frs,No. days ground frost,Saharo-Arabian,92.9651148560047,0.408732170699594,6
tables_output/terrestrial.climate-ksi.csv,frs,No. days ground frost,Oriental,78.6369014963891,0.345736478629577,7
tables_output/terrestrial.climate-ksi.csv,frs,No. days ground frost,Sino-Japanese,39.9843061608352,0.175795751732777,8
tables_output/terrestrial.climate-ksi.csv,frs,No. days ground frost,Panamanian,35.3706704286774,0.155511354187064,9
tables_output/terrestrial.climate-ksi.csv,pre,Precipitation,Palearctic,125.611886140782,1,1
tables_output/terrestrial.climate-ksi.csv,pre,Precipitation,Neotropical,121.13977216712,0.96439736627591,2
tables_output/terrestrial.climate-ksi.csv,pre,Precipitation,Saharo-Arabian,120.552233304231,0.95971995173386,3
tables_output/terrestrial.climate-ksi.csv,pre,Precipitation,Oriental,70.8163801367022,0.563771330185531,4
tables_output/terrestrial.climate-ksi.csv,pre,Precipitation,Afrotropical,55.5035626096801,0.441865529727604,5
tables_output/terrestrial.climate-ksi.csv,pre,Precipitation,Nearctic,41.4007937128829,0.329592962774893,6
tables_output/terrestrial.climate-ksi.csv,pre,Precipitation,Panamanian,39.9412418852883,0.31797342681825,7
tables_output/terrestrial.climate-ksi.csv,pre,Precipitation,Australian,27.0771881831381,0.215562308751505,8
tables_output/terrestrial.climate-ksi.csv,pre,Precipitation,Sino-Japanese,26.8560363285135,0.213801712191583,9
tables_output/terrestrial.climate-ksi.csv,rd0,Wet days,Saharo-Arabian,136.726380016619,1,1
tables_output/terrestrial.climate-ksi.csv,rd0,Wet days,Palearctic,128.831370865562,0.942256869887893,2
tables_output/terrestrial.climate-ksi.csv,rd0,Wet days,Afrotropical,85.2062178363726,0.623187842946005,3
tables_output/terrestrial.climate-ksi.csv,rd0,Wet days,Australian,63.8275859914028,0.466827147648059,4
tables_output/terrestrial.climate-ksi.csv,rd0,Wet days,Neotropical,59.8288326629951,0.437580755489342,5
tables_output/terrestrial.climate-ksi.csv,rd0,Wet days,Nearctic,46.7834170765231,0.34216818342471,6
tables_output/terrestrial.climate-ksi.csv,rd0,Wet days,Oriental,33.0937421490835,0.242043577435905,7
tables_output/terrestrial.climate-ksi.csv,rd0,Wet days,Sino-Japanese,25.0011457559748,0.182855318431863,8
tables_output/terrestrial.climate-ksi.csv,rd0,Wet days,Panamanian,14.5675111299409,0.106544992474534,9
tables_output/terrestrial.climate-ksi.csv,sunp,Sunshine percent,Palearctic,146.154012937347,1,1
tables_output/terrestrial.climate-ksi.csv,sunp,Sunshine percent,Saharo-Arabian,134.984845123841,0.923579465325426,2
tables_output/terrestrial.climate-ksi.csv,sunp,Sunshine percent,Afrotropical,106.43696013635,0.728252054098418,3
tables_output/terrestrial.climate-ksi.csv,sunp,Sunshine percent,Australian,89.9895255901261,0.615717104043543,4
tables_output/terrestrial.climate-ksi.csv,sunp,Sunshine percent,Neotropical,50.0946527577542,0.342752496157793,5
tables_output/terrestrial.climate-ksi.csv,sunp,Sunshine percent,Nearctic,46.1448028359834,0.315727238059241,6
tables_output/terrestrial.climate-ksi.csv,sunp,Sunshine percent,Oriental,45.0093514606953,0.30795836909377,7
tables_output/terrestrial.climate-ksi.csv,sunp,Sunshine percent,Sino-Japanese,21.5906669968555,0.147725447717339,8
tables_output/terrestrial.climate-ksi.csv,sunp,Sunshine percent,Panamanian,15.7827266927968,0.107986954142426,9
tables_output/terrestrial.climate-ksi.csv,tmp,Mean temperature,Palearctic,234.646585905814,1,1
tables_output/terrestrial.climate-ksi.csv,tmp,Mean temperature,Afrotropical,163.767409725618,0.697932207679139,2
tables_output/terrestrial.climate-ksi.csv,tmp,Mean temperature,Neotropical,100.643887733506,0.428916906440325,3
tables_output/terrestrial.climate-ksi.csv,tmp,Mean temperature,Saharo-Arabian,96.7759338095491,0.412432737667849,4
tables_output/terrestrial.climate-ksi.csv,tmp,Mean temperature,Nearctic,93.2506033939522,0.397408737203542,5
tables_output/terrestrial.climate-ksi.csv,tmp,Mean temperature,Australian,84.740743849972,0.361142027798292,6
tables_output/terrestrial.climate-ksi.csv,tmp,Mean temperature,Oriental,80.9299575317497,0.344901491830077,7
tables_output/terrestrial.climate-ksi.csv,tmp,Mean temperature,Sino-Japanese,41.308875078158,0.176047202726994,8
tables_output/terrestrial.climate-ksi.csv,tmp,Mean temperature,Panamanian,30.8406484146098,0.131434464710213,9
tables_output/terrestrial.climate-ksi.csv,wnd,Mean wind velocity,Nearctic,111.947105539085,1,1
tables_output/terrestrial.climate-ksi.csv,wnd,Mean wind velocity,Afrotropical,101.058363006098,0.902733148118912,2
tables_output/terrestrial.climate-ksi.csv,wnd,Mean wind velocity,Oriental,77.0957261820071,0.688679942288369,3
tables_output/terrestrial.climate-ksi.csv,wnd,Mean wind velocity,Palearctic,64.1647487398587,0.573170234557394,4
tables_output/terrestrial.climate-ksi.csv,wnd,Mean wind velocity,Neotropical,62.4577872705336,0.557922305983402,5
tables_output/terrestrial.climate-ksi.csv,wnd,Mean wind velocity,Sino-Japanese,58.6017365690895,0.523477014317529,6
tables_output/terrestrial.climate-ksi.csv,wnd,Mean wind velocity,Australian,40.8854271674436,0.365220940466111,7
tables_output/terrestrial.climate-ksi.csv,wnd,Mean wind velocity,Saharo-Arabian,29.7278923355983,0.265553023389418,8
tables_output/terrestrial.climate-ksi.csv,wnd,Mean wind velocity,Panamanian,11.7484416089008,0.104946363305471,9
tables_output/terrestrial.climate-ksi.csv,pre.cv,Interannual variation in precipitation,Palearctic,133.678106850875,1,1
tables_output/terrestrial.climate-ksi.csv,pre.cv,Interannual variation in precipitation,Saharo-Arabian,132.840690506352,0.993735575972386,2
tables_output/terrestrial.climate-ksi.csv,pre.cv,Interannual variation in precipitation,Afrotropical,122.53107967277,0.916612918594518,3
tables_output/terrestrial.climate-ksi.csv,pre.cv,Interannual variation in precipitation,Australian,79.7008216381728,0.596214470085841,4
tables_output/terrestrial.climate-ksi.csv,pre.cv,Interannual variation in precipitation,Nearctic,77.2973120625534,0.578234640536783,5
tables_output/terrestrial.climate-ksi.csv,pre.cv,Interannual variation in precipitation,Oriental,56.4207702459365,0.422064402130387,6
tables_output/terrestrial.climate-ksi.csv,pre.cv,Interannual variation in precipitation,Neotropical,36.9485393935067,0.276399331677586,7
tables_output/terrestrial.climate-ksi.csv,pre.cv,Interannual variation in precipitation,Sino-Japanese,20.9039541539278,0.156375300685903,8
tables_output/terrestrial.climate-ksi.csv,pre.cv,Interannual variation in precipitation,Panamanian,9.47583560410558,0.0708854712812202,9
tables_output/terrestrial.climate-ksi.csv,nrd.dm,Number of rainy days in driest month,Palearctic,154.247038366326,1,1
tables_output/terrestrial.climate-ksi.csv,nrd.dm,Number of rainy days in driest month,Afrotropical,146.470951068821,0.949586796739414,2
tables_output/terrestrial.climate-ksi.csv,nrd.dm,Number of rainy days in driest month,Saharo-Arabian,127.81060195949,0.828609763358621,3
tables_output/terrestrial.climate-ksi.csv,nrd.dm,Number of rainy days in driest month,Nearctic,82.3089003923401,0.533617379394099,4
tables_output/terrestrial.climate-ksi.csv,nrd.dm,Number of rainy days in driest month,Oriental,67.4658205514592,0.437388109788095,5
tables_output/terrestrial.climate-ksi.csv,nrd.dm,Number of rainy days in driest month,Australian,54.5111181905971,0.353401392778362,6
tables_output/terrestrial.climate-ksi.csv,nrd.dm,Number of rainy days in driest month,Neotropical,42.4274315937797,0.27506156385977,7
tables_output/terrestrial.climate-ksi.csv,nrd.dm,Number of rainy days in driest month,Sino-Japanese,24.5691393215406,0.159284350492297,8
tables_output/terrestrial.climate-ksi.csv,nrd.dm,Number of rainy days in driest month,Panamanian,9.84763133324855,0.0638432441721252,9
tables_output/terrestrial.climate-ksi.csv,max.temp,Maximum temperature,Palearctic,193.549094235154,1,1
tables_output/terrestrial.climate-ksi.csv,max.temp,Maximum temperature,Afrotropical,124.993261138271,0.645796156433621,2
tables_output/terrestrial.climate-ksi.csv,max.temp,Maximum temperature,Saharo-Arabian,111.7571366146,0.577409762914314,3
tables_output/terrestrial.climate-ksi.csv,max.temp,Maximum temperature,Neotropical,74.6089780086114,0.385478311347532,4
tables_output/terrestrial.climate-ksi.csv,max.temp,Maximum temperature,Nearctic,74.4945902323073,0.384887309995879,5
tables_output/terrestrial.climate-ksi.csv,max.temp,Maximum temperature,Oriental,74.3576351035025,0.384179711082301,6
tables_output/terrestrial.climate-ksi.csv,max.temp,Maximum temperature,Australian,70.8088587770631,0.365844433717853,7
tables_output/terrestrial.climate-ksi.csv,max.temp,Maximum temperature,Sino-Japanese,33.6269684425228,0.173738702190295,8
tables_output/terrestrial.climate-ksi.csv,max.temp,Maximum temperature,Panamanian,21.2209116062772,0.109640976053831,9
tables_output/terrestrial.prod-ksi.csv,gpp,Gross primary productivity,Saharo-Arabian,520756.273281435,1,1
tables_output/terrestrial.prod-ksi.csv,gpp,Gross primary productivity,Australian,169739.797496092,0.325948637020756,2
tables_output/terrestrial.prod-ksi.csv,gpp,Gross primary productivity,Palearctic,169590.252663444,0.325661468453959,3
tables_output/terrestrial.prod-ksi.csv,gpp,Gross primary productivity,Sino-Japanese,149373.239745044,0.286839059669507,4
tables_output/terrestrial.prod-ksi.csv,gpp,Gross primary productivity,Afrotropical,138973.572924089,0.266868744659333,5
tables_output/terrestrial.prod-ksi.csv,gpp,Gross primary productivity,Nearctic,138780.986036691,0.266498923118472,6
tables_output/terrestrial.prod-ksi.csv,gpp,Gross primary productivity,Neotropical,127768.259247887,0.245351358789751,7
tables_output/terrestrial.prod-ksi.csv,gpp,Gross primary productivity,Oriental,108807.959936314,0.208942197183116,8
tables_output/terrestrial.prod-ksi.csv,gpp,Gross primary productivity,Panamanian,74538.131457077,0.143134389889133,9
tables_output/terrestrial.prod-ksi.csv,gpp,Gross primary productivity,Australian,64696.968387668,0.124236560761897,10
tables_output/terrestrial.prod-ksi.csv,npp,Net primary productivity,Saharo-Arabian,445076.75867558,1,1
tables_output/terrestrial.prod-ksi.csv,npp,Net primary productivity,Palearctic,185558.323339661,0.416913082345233,2
tables_output/terrestrial.prod-ksi.csv,npp,Net primary productivity,Nearctic,175468.970241963,0.394244288926944,3
tables_output/terrestrial.prod-ksi.csv,npp,Net primary productivity,Australian,170615.556400811,0.383339621930638,4
tables_output/terrestrial.prod-ksi.csv,npp,Net primary productivity,Afrotropical,163649.605925696,0.367688500322215,5
tables_output/terrestrial.prod-ksi.csv,npp,Net primary productivity,Sino-Japanese,151346.072953489,0.340044879907572,6
tables_output/terrestrial.prod-ksi.csv,npp,Net primary productivity,Oriental,111651.86684603,0.250859800404482,7
tables_output/terrestrial.prod-ksi.csv,npp,Net primary productivity,Neotropical,109744.823985539,0.246575049912982,8
tables_output/terrestrial.prod-ksi.csv,npp,Net primary productivity,Panamanian,83144.4488479736,0.186809235097756,9
tables_output/terrestrial.prod-ksi.csv,npp,Net primary productivity,Australian,69013.0853043526,0.155058838636544,10
