"Database","Dependent.variable","Spatially.explicit","Units","n","c2","P.value","X","fdr_adjusted_p"
"Terrestrial climate","Diurnal temperature range","Yes","°C",1755,3.09,0.079,NA,0.237
"Terrestrial climate","No. days ground frost","Yes","Days",1755,1.25,0.264,NA,0.504
"Terrestrial climate","Precipitation","Yes","mm",1755,0.4,0.526,NA,0.701333333333333
"Terrestrial climate","Wet days","Yes","days",1755,0.32,0.573,NA,0.740492307692308
"Terrestrial climate","Aridity","Yes","MAP/PET",1548,0.7,0.404,NA,0.626181818181818
"Terrestrial climate","Sunshine percent","Yes","%",1755,2.13,0.144,NA,0.3456
"Terrestrial climate","Mean temperature","Yes","°C",1755,0.6,0.437,NA,0.632065573770492
"Terrestrial climate","Mean wind","Yes","m s-1",1760,1.04,0.307,NA,0.543428571428571
"Terrestrial climate","Interannual variation in precipitation","Yes","CV",1755,0.18,0.668,NA,0.779333333333333
"Terrestrial climate","Number of rainy days in driest month","Yes","Days",1755,0.22,0.639,NA,0.777913043478261
"Terrestrial climate","Maximum temperature","Yes","°C",1755,0.35,0.554,NA,0.727125
"Marine climate and nutrients","Mean sea surface temperature","Yes","°C",1697,0.61,0.436,NA,0.632065573770492
"Marine climate and nutrients","Mean nitrate concentration","Yes","µM l-1",1254,0.7,0.403,NA,0.626181818181818
"Marine climate and nutrients","Mean phosphate concentration","Yes","µM l-1",1616,0.19,0.663,NA,0.779333333333333
"Marine climate and nutrients","Mean silicate concentration","Yes","µM l-1",1422,0.94,0.332,NA,0.55776
"Soil N","Total N","No","g m-2",17666,2.65,0.103,NA,0.2884
"Soil P","Total P","Yes","g m-2",1668,0.03,0.863,NA,0.88609756097561
"Soil P","Secondary P","Yes","g m-2",1668,1.12,0.29,NA,0.529565217391304
"Soil P","Organic P","Yes","g m-2",1668,2.01,0.156,NA,0.364
"Soil P","Labile inorganic P","Yes","g m-2",1668,0.28,0.597,NA,0.748477611940298
"Geochemistry","Aluminium","No","mg kg-1",20271,2.32,0.128,NA,0.316235294117647
"Geochemistry","Barium","Yes","mg kg-1",20271,3.57,0.059,NA,0.186666666666667
"Geochemistry","Calcium","Yes","mg kg-1",20271,7.28,0.007,NA,0.0653333333333333
"Geochemistry","Cobalt","Yes","mg kg-1",13591,1.33,0.249,NA,0.486418604651163
"Geochemistry","Chromium","Yes","mg kg-1",20268,0.19,0.667,NA,0.779333333333333
"Geochemistry","Copper","Yes","mg kg-1",20271,1.91,0.167,NA,0.369157894736842
"Geochemistry","Iron","Yes","mg kg-1",20244,0.5,0.479,NA,0.648967741935484
"Geochemistry","Potasium","Yes","mg kg-1",20264,4.73,0.03,NA,0.1302
"Geochemistry","Magnesium","Yes","mg kg-1",20268,4.81,0.028,NA,0.1302
"Geochemistry","Manganese","Yes","mg kg-1",20256,6.62,0.01,NA,0.0728
"Geochemistry","Sodium","Yes","mg kg-1",20250,16.94,1e-04,NA,0.0028
"Geochemistry","Niquel","Yes","mg kg-1",20271,0.11,0.737,NA,0.836594594594595
"Geochemistry","Lead","Yes","mg kg-1",18766,1.61,0.204,NA,0.439384615384615
"Geochemistry","Strontium","Yes","mg kg-1",10269,8.68,0.003,NA,0.042
"Geochemistry","Thorium","Yes","mg kg-1",20121,1.37,0.242,NA,0.484
"Geochemistry","Titatium","Yes","mg kg-1",20098,1.4,0.237,NA,0.484
"Geochemistry","Vanadium","Yes","mg kg-1",20263,0.63,0.428,NA,0.632065573770492
"Geochemistry","Zinc","Yes","mg kg-1",20185,4.06,0.044,NA,0.168
"Geochemistry","Scandium","Yes","mg kg-1",19412,0.07,0.79,NA,0.850769230769231
"Geochemistry","Uranium","Yes","mg kg-1",19807,3.79,0.052,NA,0.182
"Edaphic properties"," Base Saturation","Yes","%",1931,0.79,0.373,NA,0.614352941176471
"Edaphic properties"," Bulk Density","Yes","kg dm-3",1931,4.67,0.031,NA,0.1302
"Edaphic properties"," Calcium Carbonate","Yes","%",1931,1.13,0.287,NA,0.529565217391304
"Edaphic properties"," Gypsum","Yes","%",1931,0.03,0.865,NA,0.88609756097561
"Edaphic properties"," CEC (clay)","Yes","cmol kg-1",1931,0.12,0.727,NA,0.836547945205479
"Edaphic properties"," CEC (soil)","Yes","cmol kg-1",1931,0.57,0.45,NA,0.632065573770492
"Edaphic properties"," Clay Fraction","Yes","%",1931,0.24,0.626,NA,0.773294117647059
"Edaphic properties"," Salinity (Elco)","Yes","dS m-1",1931,0.29,0.592,NA,0.748477611940298
"Edaphic properties"," Sodicity (ESP)","Yes","%",1931,3.55,0.06,NA,0.186666666666667
"Edaphic properties"," Gravel Content","Yes","%",1931,0.05,0.83,NA,0.88095
"Edaphic properties"," Organic Carbon","Yes","%",1931,1.91,0.167,NA,0.369157894736842
"Edaphic properties"," pH (H2O)","Yes","-log(H+)",1931,8.4,0.004,NA,0.042
"Edaphic properties"," Reference Bulk Density","Yes","kg dm-3",1931,2.68,0.102,NA,0.2884
"Edaphic properties"," Sand Fraction","Yes","%",1931,0.02,0.884,NA,0.894650602409638
"Edaphic properties"," Silt Fraction","Yes","%",1931,0.04,0.839,NA,0.88095
"Edaphic properties"," TEB","Yes","cM kg-1",1931,5.342,0.021,NA,0.11025
"Plants","Leaf area","No","mm2",1889,3.67,0.055,NA,0.1848
"Plants","Specific leaf area","No","mm2 mg-1",2763,6.32,0.012,NA,0.0728
"Plants","Seed mass","No","mg",4648,0.01,0.923,NA,0.923
"Plants","Lean N mass","No","mg g-1",5347,12.24,0.001,NA,0.021
"Plants","Leaf P mass","No","g m-2",1736,6.12,0.013,NA,0.0728
"Plants","Plant height","No","m",3320,1,0.317,NA,0.543428571428571
"Plants","Photosynthesis","No","C3/CAM",2488,4.17,0.041,NA,0.164
"Plants","Dispersal syndrome","No","abiotic/biotic",1732,0.68,0.41,NA,0.626181818181818
"Plants","Nitrogen fixing capacity","No","fixer/non-fixer",21809,9.35,0.002,NA,0.0336
"Plants","Leaf form","No","simple/compound",12488,0.55,0.458,NA,0.632065573770492
"Plants","Phenology","No","evergreen/deciduous",5453,1.02,0.313,NA,0.543428571428571
"Plants","Life form","No","woody/non-woody",11882,0.08,0.775,NA,0.850769230769231
"Birds","Adult Body Mass","No","g",4984,0.55,0.459,NA,0.632065573770492
"Birds","Age of Maturity","No","Days",1894,2.51,0.113,NA,0.306193548387097
"Birds","Post hatch Growth Rate","No","g days-1",892,6.23,0.013,NA,0.0728
"Birds","Lifespan","No","Years",2555,5.2,0.023,NA,0.113647058823529
"Birds","Ann. Production Rate to Hatching","No","hatch mass × clutch size × clutches per year adult body mass -1",781,0.07,0.786,NA,0.850769230769231
"Mammals","Age of Maturity ","No","Days",471,0.75,0.388,NA,0.626181818181818
"Mammals","Lifespan","No","Months",1018,3.83,0.051,NA,0.182
"Mammals","Ann. Production Rate to Weaning","No","litter size × number of litters per year × mass of weaned young adult mass-1",342,6.81,0.009,NA,0.0728
"Mammals","Ann. Production Rate to Birth","No","litter size × number of litters per year × mass of neonate adult mass-1",601,23.69,1e-04,NA,0.0028
"Mammals","Basal Metabolic Rate","No","O2 ml g-1",638,2.43,0.119,NA,0.310545454545455
"Mammals","Adult Body Mass","No","g",3129,0.1,0.747,NA,0.83664
"Terrestrial NPP and GPP","Net primary productivity","Yes","C mg m-2 day-1",7974,6.41,0.011,NA,0.0728
"Terrestrial NPP and GPP","Gross primary productivity","Yes","C mg m-2 day-1",7974,8.2,0.004,NA,0.042
"Marine NPP","Net primary productivity","Yes","C mg m-2 day-1",7793,14.5,1e-04,NA,0.0028
"Decomposition","Decomposition constant","No","k*",442,2.39,0.122,NA,0.310545454545455
"Marine Herbivory","Grazers impact","No","log(ungrazed biomass/grazed biomass)",97,1.39,0.239,NA,0.484
