"","id","node","statistic","statistic.rel","rank"
"1","T_GRAVEL","Australian",530098.460063204,1,1
"2","T_GRAVEL","Nearctic",330058.328710188,0.622635894227716,2
"3","T_GRAVEL","Neotropical",326958.647010386,0.616788524477892,3
"4","T_GRAVEL","Palearctic",322989.815943403,0.609301554856229,4
"5","T_GRAVEL","Saharo-Arabian",291534.263704521,0.54996247993205,5
"6","T_GRAVEL","Sino-Japanese",237717.373195302,0.448440037284695,6
"7","T_GRAVEL","Afrotropical",232752.120308794,0.439073375691457,7
"8","T_GRAVEL","Oriental",230681.900046737,0.435168025236731,8
"9","T_GRAVEL","Panamanian",184232.643191771,0.34754419616651,9
"10","T_SAND","Australian",406342.593230757,1,1
"11","T_SAND","Nearctic",267020.898544475,0.657132436994705,2
"12","T_SAND","Palearctic",266124.574590572,0.654926603865628,3
"13","T_SAND","Saharo-Arabian",180568.491670687,0.444375004439036,4
"14","T_SAND","Neotropical",172760.823179017,0.425160507554542,5
"15","T_SAND","Oriental",115573.423544504,0.284423600847748,6
"16","T_SAND","Sino-Japanese",101629.872240418,0.250108834105669,7
"17","T_SAND","Afrotropical",65085.042592711,0.160172828733585,8
"18","T_SAND","Panamanian",15246.2066038929,0.0375205721917387,9
"19","T_SILT","Australian",277857.747018426,1,1
"20","T_SILT","Nearctic",275353.833314314,0.990988504977889,2
"21","T_SILT","Saharo-Arabian",214242.070837788,0.771049478147465,3
"22","T_SILT","Palearctic",190551.431661157,0.685787723055713,4
"23","T_SILT","Afrotropical",149745.436392074,0.538928419304228,5
"24","T_SILT","Neotropical",135674.801740972,0.488288713188101,6
"25","T_SILT","Oriental",133069.212885014,0.478911292965281,7
"26","T_SILT","Sino-Japanese",107903.405005004,0.388340458968195,8
"27","T_SILT","Panamanian",67562.5827291474,0.243155296025153,9
"28","T_CLAY","Australian",451231.219805154,1,1
"29","T_CLAY","Nearctic",330937.518958266,0.733410066575552,2
"30","T_CLAY","Palearctic",313880.152411021,0.695608235056424,3
"31","T_CLAY","Saharo-Arabian",262000.799676626,0.580635355394426,4
"32","T_CLAY","Oriental",193193.925053443,0.428148400584663,5
"33","T_CLAY","Neotropical",151784.053833167,0.336377553615879,6
"34","T_CLAY","Sino-Japanese",150598.979839319,0.333751241557153,7
"35","T_CLAY","Panamanian",109535.010488813,0.242746968031403,8
"36","T_CLAY","Afrotropical",55209.851848771,0.122353794297768,9
"37","T_REF_BULK_DENSITY","Neotropical",71.9136390510922,1,1
"38","T_REF_BULK_DENSITY","Australian",61.413394627335,0.853988136849852,2
"39","T_REF_BULK_DENSITY","Palearctic",48.9767044815288,0.681048895978306,3
"40","T_REF_BULK_DENSITY","Nearctic",36.4031836083461,0.506206946118842,4
"41","T_REF_BULK_DENSITY","Saharo-Arabian",28.0863641711576,0.390556847654493,5
"42","T_REF_BULK_DENSITY","Oriental",27.7585675889373,0.385998649980927,6
"43","T_REF_BULK_DENSITY","Panamanian",23.1370542956502,0.321733882486633,7
"44","T_REF_BULK_DENSITY","Afrotropical",17.1746260485209,0.238822930881288,8
"45","T_REF_BULK_DENSITY","Sino-Japanese",11.4839055439197,0.159690229773531,9
"46","T_BULK_DENSITY","Australian",107.992797095725,1,1
"47","T_BULK_DENSITY","Neotropical",69.8010656981295,0.646349271204242,2
"48","T_BULK_DENSITY","Palearctic",63.0046150685754,0.583414975470336,3
"49","T_BULK_DENSITY","Nearctic",56.0840706145852,0.519331586206367,4
"50","T_BULK_DENSITY","Afrotropical",28.4478615600739,0.263423694219695,5
"51","T_BULK_DENSITY","Panamanian",20.0030356093125,0.185225646036205,6
"52","T_BULK_DENSITY","Saharo-Arabian",18.1316434486705,0.167896785121683,7
"53","T_BULK_DENSITY","Sino-Japanese",16.9583567917757,0.157032295188575,8
"54","T_BULK_DENSITY","Oriental",14.632427121624,0.135494472919835,9
"55","T_OC","Australian",134.681578535641,1,1
"56","T_OC","Palearctic",129.449736471461,0.961153989127058,2
"57","T_OC","Nearctic",71.7533437229104,0.532762865590575,3
"58","T_OC","Afrotropical",70.3377081733552,0.522251884319439,4
"59","T_OC","Saharo-Arabian",59.1568337983013,0.439234782080063,5
"60","T_OC","Neotropical",29.8249157970713,0.221447625735828,6
"61","T_OC","Oriental",19.5210136113376,0.144941972195341,7
"62","T_OC","Sino-Japanese",18.6687756587098,0.138614173235053,8
"63","T_OC","Panamanian",14.918552977479,0.110769068343901,9
"64","T_PH_H2O","Australian",100.557753353785,1,1
"65","T_PH_H2O","Neotropical",91.5393681506329,0.910316361470176,2
"66","T_PH_H2O","Saharo-Arabian",71.9844773917277,0.715852084905577,3
"67","T_PH_H2O","Palearctic",66.0414655083664,0.656751601003033,4
"68","T_PH_H2O","Nearctic",29.8551741870125,0.296895795612848,5
"69","T_PH_H2O","Afrotropical",26.955269317084,0.268057592956053,6
"70","T_PH_H2O","Oriental",22.8074329451246,0.226809293012772,7
"71","T_PH_H2O","Sino-Japanese",13.8913726309418,0.138143227823207,8
"72","T_PH_H2O","Panamanian",12.3662045841854,0.12297614228391,9
"73","T_CEC_CLAY","Australian",459904.410473051,1,1
"74","T_CEC_CLAY","Palearctic",343459.713283757,0.74680673953633,2
"75","T_CEC_CLAY","Nearctic",274406.124671502,0.596659041363079,3
"76","T_CEC_CLAY","Neotropical",221783.575411949,0.482238418161344,4
"77","T_CEC_CLAY","Saharo-Arabian",192577.272454657,0.418733258627755,5
"78","T_CEC_CLAY","Oriental",163251.249161972,0.354967783401022,6
"79","T_CEC_CLAY","Afrotropical",146907.690713341,0.319430923835312,7
"80","T_CEC_CLAY","Sino-Japanese",141328.387193924,0.307299482187083,8
"81","T_CEC_CLAY","Panamanian",75711.0388640388,0.164623424215836,9
"82","T_CEC_SOIL","Australian",395087.163270305,1,1
"83","T_CEC_SOIL","Nearctic",256918.156610928,0.650282217433507,2
"84","T_CEC_SOIL","Palearctic",255126.5222514,0.645747434919447,3
"85","T_CEC_SOIL","Neotropical",248811.766741722,0.629764239066136,4
"86","T_CEC_SOIL","Oriental",228849.689477322,0.579238483941203,5
"87","T_CEC_SOIL","Saharo-Arabian",220354.612078712,0.557736703604195,6
"88","T_CEC_SOIL","Sino-Japanese",118917.92908449,0.300991629543606,7
"89","T_CEC_SOIL","Panamanian",118044.177029321,0.298780087037552,8
"90","T_CEC_SOIL","Afrotropical",76903.5113631299,0.194649481209581,9
"91","T_BS","Australian",540276.243353176,1,1
"92","T_BS","Palearctic",390074.495485731,0.721990833920012,2
"93","T_BS","Saharo-Arabian",363344.595619952,0.672516328619016,3
"94","T_BS","Nearctic",308187.566992353,0.570425908567837,4
"95","T_BS","Neotropical",270907.282210113,0.501423643077014,5
"96","T_BS","Afrotropical",253676.096815863,0.469530355881364,6
"97","T_BS","Oriental",187275.198028331,0.346628600336051,7
"98","T_BS","Sino-Japanese",149310.849424873,0.276360197698475,8
"99","T_BS","Panamanian",65744.3315334233,0.121686511932094,9
"100","T_TEB","Neotropical",99.9326572907112,1,1
"101","T_TEB","Australian",83.7233034164496,0.837797229517199,2
"102","T_TEB","Saharo-Arabian",59.5951033914197,0.596352633934804,3
"103","T_TEB","Nearctic",59.3890685481075,0.59429089707222,4
"104","T_TEB","Afrotropical",45.2760870113137,0.453065977016926,5
"105","T_TEB","Palearctic",43.3578073731693,0.433870253715343,6
"106","T_TEB","Oriental",24.4270582602249,0.244435191882918,7
"107","T_TEB","Sino-Japanese",18.012656408066,0.180247947932235,8
"108","T_TEB","Panamanian",10.3423784420282,0.103493479733472,9
"109","T_CACO3","Saharo-Arabian",73.765707638294,1,1
"110","T_CACO3","Australian",72.6097937081268,0.984329928266463,2
"111","T_CACO3","Neotropical",63.7015895228513,0.863566439777254,3
"112","T_CACO3","Palearctic",58.8039953655694,0.797172524310503,4
"113","T_CACO3","Afrotropical",26.1135468296666,0.354006592842746,5
"114","T_CACO3","Nearctic",22.337454466711,0.302816243236511,6
"115","T_CACO3","Oriental",22.2324338088121,0.3013925375437,7
"116","T_CACO3","Sino-Japanese",12.8136559626363,0.173707490551943,8
"117","T_CACO3","Panamanian",9.69209370329692,0.131390235566119,9
"118","T_CASO4","Palearctic",58.8478334310988,1,1
"119","T_CASO4","Saharo-Arabian",55.0885653250417,0.936118835870846,2
"120","T_CASO4","Afrotropical",41.592643374487,0.706782917049702,3
"121","T_CASO4","Nearctic",34.0803113655254,0.579126016685523,4
"122","T_CASO4","Australian",27.3804704379386,0.465275760236723,5
"123","T_CASO4","Neotropical",16.0173749480066,0.2721829167553,6
"124","T_CASO4","Sino-Japanese",15.2270442399653,0.258752843599479,7
"125","T_CASO4","Oriental",11.509459458248,0.195580003327119,8
"126","T_CASO4","Panamanian",8.17690934924876,0.13895004917764,9
"127","T_ESP","Australian",680803.147816373,1,1
"128","T_ESP","Nearctic",446216.797508427,0.655427048096994,2
"129","T_ESP","Palearctic",396073.722089036,0.581774222636035,3
"130","T_ESP","Oriental",353298.626935571,0.518943879840671,4
"131","T_ESP","Saharo-Arabian",337123.221121321,0.495184580451221,5
"132","T_ESP","Panamanian",323927.278578986,0.475801675738368,6
"133","T_ESP","Sino-Japanese",309287.653914024,0.454298213670195,7
"134","T_ESP","Neotropical",274325.434768442,0.402943840151623,8
"135","T_ESP","Afrotropical",34453.7783788565,0.0506075485834114,9
"136","T_ECE","Neotropical",178.182586150131,1,1
"137","T_ECE","Australian",90.9622222689196,0.510500067567083,2
"138","T_ECE","Palearctic",78.5968089301709,0.441102638750274,3
"139","T_ECE","Saharo-Arabian",69.0317642426163,0.387421496870924,4
"140","T_ECE","Nearctic",41.2497762103875,0.231502848295353,5
"141","T_ECE","Afrotropical",35.4459318066005,0.19893039253979,6
"142","T_ECE","Panamanian",25.0296697758668,0.140472031059071,7
"143","T_ECE","Oriental",17.9485529724874,0.100731240691301,8
"144","T_ECE","Sino-Japanese",17.0403737847805,0.0956343386464421,9
