"","id","node","statistic","statistic.rel","rank"
"1","al","Palearctic",9685.5490975919,1,1
"2","al","Australian",8.45841204784951,0.000873302273585347,2
"3","al","Nearctic",6.49979578887353,0.00067108180686313,3
"4","al","Neotropical",3.45491286407389,0.000356708001710804,4
"5","ba","Nearctic",23.4291073203075,1,1
"6","ba","Australian",21.7327357504142,0.927595552544891,2
"7","ba","Palearctic",8.19417009292732,0.34974316267803,3
"8","ba","Neotropical",3.75542506121455,0.160288866744807,4
"9","ca","Palearctic",4996.53041374503,1,1
"10","ca","Australian",21.5823102469753,0.00431945939678546,2
"11","ca","Nearctic",16.8489339289586,0.00337212676272492,3
"12","ca","Neotropical",2.30428118307481,0.000461176254773898,4
"13","co","Australian",7.9410552704476,1,1
"14","co","Nearctic",7.19446837152693,0.905983918573257,2
"15","co","Neotropical",4.960620088772,0.624680211864638,3
"16","co","Palearctic",1.79300147597772,0.225788817092147,4
"17","cr","Nearctic",11.4597547445588,1,1
"18","cr","Palearctic",9.08794792355303,0.793031624683595,2
"19","cr","Australian",7.57092991018744,0.660653746868551,3
"20","cr","Neotropical",1.63502268190508,0.142675189683392,4
"21","cu","Australian",8.91255157687002,1,1
"22","cu","Nearctic",8.12684627905432,0.911842832993553,2
"23","cu","Palearctic",1.4716484921904,0.165120894897219,3
"24","cu","Neotropical",0.877558112370904,0.0984631735145696,4
"25","fe","Palearctic",5049.06254930163,1,1
"26","fe","Nearctic",3.37988849833866,0.00066940911611526,2
"27","fe","Australian",2.63961896061054,0.000522793872097235,3
"28","fe","Neotropical",1.32571345696612,0.000262566257403464,4
"29","k","Palearctic",7006.54726102209,1,1
"30","k","Australian",15.0192199427226,0.00214359789254196,2
"31","k","Nearctic",11.4187030397979,0.00162971897775113,3
"32","k","Neotropical",4.22333151810669,0.000602769290032678,4
"33","mg","Palearctic",20748.0529350048,1,1
"34","mg","Australian",17.5271147916152,0.000844759498470556,2
"35","mg","Nearctic",15.2209018676176,0.000733606276950346,3
"36","mg","Neotropical",2.79644924048642,0.000134781285224525,4
"37","mn","Palearctic",5576.00147764998,1,1
"38","mn","Australian",13.6376914934271,0.00244578333561969,2
"39","mn","Nearctic",11.9197880172116,0.00213769455854506,3
"40","mn","Neotropical",1.45532551925572,0.00026099805121807,4
"41","na","Palearctic",27286.8908660539,1,1
"42","na","Australian",21.5768001930692,0.00079073868470342,2
"43","na","Nearctic",20.5514288667774,0.000753161251227208,3
"44","na","Neotropical",2.89442299219609,0.000106073755577514,4
"45","ni","Nearctic",12.6942091556278,1,1
"46","ni","Australian",10.4645994665999,0.82436009508797,2
"47","ni","Palearctic",7.69641905298769,0.606293701216951,3
"48","ni","Neotropical",2.11651991807438,0.166731136388756,4
"49","pb","Neotropical",9.55655847410759,1,1
"50","pb","Palearctic",7.54581599957964,0.789595545302649,2
"51","pb","Australian",7.29801050960521,0.763665134198502,3
"52","pb","Nearctic",4.97139580034806,0.520207751966097,4
"53","sc","Australian",5.82074953224105,1,1
"54","sc","Nearctic",5.72565940790718,0.983663594558199,2
"55","sc","Neotropical",3.93900961068752,0.67671862341257,3
"56","sc","Palearctic",3.56116706774151,0.61180558414621,4
"57","sr","Australian",1090.13632361808,1,1
"58","sr","Palearctic",8.60361294696092,0.00789223582460419,2
"59","sr","Neotropical",5.56606277362418,0.00510584103385422,3
"60","th","Australian",4.04282188956838,1,1
"61","th","Palearctic",3.62020189247647,0.895464106845175,2
"62","th","Nearctic",2.28427721891985,0.565020493436511,3
"63","ti","Palearctic",2862.08981234886,1,1
"64","ti","Nearctic",7.82100437502885,0.00273262017889309,2
"65","ti","Australian",4.93913013381218,0.00172570759747009,3
"66","ti","Neotropical",3.31432381108938,0.0011580083185333,4
"67","u","Nearctic",25.6642888757553,1,1
"68","u","Australian",22.8511695736311,0.890387794661174,2
"69","u","Palearctic",10.1653277792778,0.39608842576896,3
"70","v","Australian",10633.3794792481,1,1
"71","v","Nearctic",7.05231475653326,0.000663224214869449,2
"72","v","Neotropical",2.65514397702286,0.000249698976906126,3
"73","v","Palearctic",2.31464235646636,0.000217677019896032,4
"74","zn","Australian",17.2028905533908,1,1
"75","zn","Nearctic",13.280684519075,0.772003081566853,2
"76","zn","Palearctic",5.18972580801127,0.301677546102177,3
"77","zn","Neotropical",2.93234500881215,0.170456528785749,4
