"","id","node","statistic","statistic.rel","rank"
"1","total_n","Europe",11.1212817315194,1,1
"2","total_n","Africa",9.87780141888025,0.888189118605371,2
"3","total_n","North America",5.44680332181703,0.489763990636075,3
"4","total_n","South America",4.01826154719705,0.361312809458704,4
"5","total_n","Australia",3.64180588055102,0.327462784278684,5
"6","total_n","Asia",2.70313833114768,0.24305996344707,6
