"","id","node","statistic","statistic.rel","rank"
"1","gpp","Saharo-Arabian",520756.273281435,1,1
"2","gpp","Australian",169739.797496092,0.325948637020756,2
"3","gpp","Palearctic",169590.252663444,0.325661468453959,3
"4","gpp","Sino-Japanese",149373.239745044,0.286839059669507,4
"5","gpp","Afrotropical",138973.572924089,0.266868744659333,5
"6","gpp","Nearctic",138780.986036691,0.266498923118472,6
"7","gpp","Neotropical",127768.259247887,0.245351358789751,7
"8","gpp","Oriental",108807.959936314,0.208942197183116,8
"9","gpp","Panamanian",74538.131457077,0.143134389889133,9
"10","gpp","Oceanina",64696.968387668,0.124236560761897,10
"11","npp","Saharo-Arabian",445076.75867558,1,1
"12","npp","Palearctic",185558.323339661,0.416913082345233,2
"13","npp","Nearctic",175468.970241963,0.394244288926944,3
"14","npp","Australian",170615.556400811,0.383339621930638,4
"15","npp","Afrotropical",163649.605925696,0.367688500322215,5
"16","npp","Sino-Japanese",151346.072953489,0.340044879907572,6
"17","npp","Oriental",111651.86684603,0.250859800404482,7
"18","npp","Neotropical",109744.823985539,0.246575049912982,8
"19","npp","Panamanian",83144.4488479736,0.186809235097756,9
"20","npp","Oceanina",69013.0853043526,0.155058838636544,10
