"continent","cont_mean","col_mean","col_sd","col_z","z","dtb"
"Afrotropical",0.97690517239359,1.07068475986791,0.269442913122421,"sla",-0.174024965785083,"plants"
"Australian",0.954842633614833,1.07068475986791,0.269442913122421,"sla",-0.214965992073521,"plants"
"Madagascan",NA,1.07068475986791,0.269442913122421,"sla",NA,"plants"
"Nearctic",1.15634005299731,1.07068475986791,0.269442913122421,"sla",0.158948869979139,"plants"
"Neotropical",1.02931214316306,1.07068475986791,0.269442913122421,"sla",-0.0767743642343605,"plants"
"Oceanina",NA,1.07068475986791,0.269442913122421,"sla",NA,"plants"
"Oriental",1.07726899703969,1.07068475986791,0.269442913122421,"sla",0.0122182415107445,"plants"
"Palearctic",1.18415047785856,1.07068475986791,0.269442913122421,"sla",0.210556137245843,"plants"
"Panamanian",1.18466469640385,1.07068475986791,0.269442913122421,"sla",0.211510362649889,"plants"
"Saharo-Arabian",1.04582200806667,1.07068475986791,0.269442913122421,"sla",-0.0461373274084806,"plants"
"Sino-Japanese",1.07577819305911,1.07068475986791,0.269442913122421,"sla",0.00945178541193345,"plants"
"Afrotropical",1.25864120808537,0.372148279942576,1.26347099708581,"seed_mass",0.350816492894367,"plants"
"Australian",0.612583215177711,0.372148279942576,1.26347099708581,"seed_mass",0.0951485771298654,"plants"
"Madagascan",NA,0.372148279942576,1.26347099708581,"seed_mass",NA,"plants"
"Nearctic",-0.0398430257826141,0.372148279942576,1.26347099708581,"seed_mass",-0.163039478814886,"plants"
"Neotropical",1.34175283611515,0.372148279942576,1.26347099708581,"seed_mass",0.383706693073668,"plants"
"Oceanina",NA,0.372148279942576,1.26347099708581,"seed_mass",NA,"plants"
"Oriental",1.67243794544901,0.372148279942576,1.26347099708581,"seed_mass",0.514570444634478,"plants"
"Palearctic",-0.105652019319122,0.372148279942576,1.26347099708581,"seed_mass",-0.189082416756594,"plants"
"Panamanian",0.281356009054217,0.372148279942576,1.26347099708581,"seed_mass",-0.0359297012348406,"plants"
"Saharo-Arabian",0.1967069975,0.372148279942576,1.26347099708581,"seed_mass",-0.0694282982542653,"plants"
"Sino-Japanese",1.11122435420339,0.372148279942576,1.26347099708581,"seed_mass",0.292478448640882,"plants"
"Afrotropical",1.16400245618164,1.239901689882,0.241152739398366,"leaf_n_mass",-0.157367554458872,"plants"
"Australian",0.915816083488175,1.239901689882,0.241152739398366,"leaf_n_mass",-0.671950912111469,"plants"
"Madagascan",NA,1.239901689882,0.241152739398366,"leaf_n_mass",NA,"plants"
"Nearctic",1.30448504667591,1.239901689882,0.241152739398366,"leaf_n_mass",0.133905501042688,"plants"
"Neotropical",1.28239575634363,1.239901689882,0.241152739398366,"leaf_n_mass",0.0881061242921257,"plants"
"Oceanina",NA,1.239901689882,0.241152739398366,"leaf_n_mass",NA,"plants"
"Oriental",1.23250528582939,1.239901689882,0.241152739398366,"leaf_n_mass",-0.0153355173800948,"plants"
"Palearctic",1.3302871201118,1.239901689882,0.241152739398366,"leaf_n_mass",0.187402868520793,"plants"
"Panamanian",1.29805502322549,1.239901689882,0.241152739398366,"leaf_n_mass",0.120573652799002,"plants"
"Saharo-Arabian",1.2843255502807,1.239901689882,0.241152739398366,"leaf_n_mass",0.0921073103078466,"plants"
"Sino-Japanese",1.24091673921266,1.239901689882,0.241152739398366,"leaf_n_mass",0.00210457764899339,"plants"
"Afrotropical",-0.192083862122807,0.0301807095530239,0.288749696397443,"leaf_p_mass",-0.384874121858642,"plants"
"Australian",-0.367249658746835,0.0301807095530239,0.288749696397443,"leaf_p_mass",-0.688191837529805,"plants"
"Madagascan",NA,0.0301807095530239,0.288749696397443,"leaf_p_mass",NA,"plants"
"Nearctic",0.10534350309879,0.0301807095530239,0.288749696397443,"leaf_p_mass",0.130152160302725,"plants"
"Neotropical",-0.0572000423599269,0.0301807095530239,0.288749696397443,"leaf_p_mass",-0.151308820412884,"plants"
"Oceanina",NA,0.0301807095530239,0.288749696397443,"leaf_p_mass",NA,"plants"
"Oriental",0.111854050939732,0.0301807095530239,0.288749696397443,"leaf_p_mass",0.141425848071353,"plants"
"Palearctic",0.20974400780963,0.0301807095530239,0.288749696397443,"leaf_p_mass",0.310932445119268,"plants"
"Panamanian",0.30672925648,0.0301807095530239,0.288749696397443,"leaf_p_mass",0.478872446235107,"plants"
"Saharo-Arabian",0.0823901143522727,0.0301807095530239,0.288749696397443,"leaf_p_mass",0.0904059908125174,"plants"
"Sino-Japanese",0.0782270085882353,0.0301807095530239,0.288749696397443,"leaf_p_mass",0.0831971420830157,"plants"
"Afrotropical",0.767318967289474,0.418373960644939,0.784685051186767,"height",0.222347173631501,"plants"
"Australian",-0.00770184602103418,0.418373960644939,0.784685051186767,"height",-0.271494790184655,"plants"
"Madagascan",NA,0.418373960644939,0.784685051186767,"height",NA,"plants"
"Nearctic",-0.212715117603099,0.418373960644939,0.784685051186767,"height",-0.402128903369301,"plants"
"Neotropical",0.754997534500452,0.418373960644939,0.784685051186767,"height",0.214495977300956,"plants"
"Oceanina",0.690708320247863,0.418373960644939,0.784685051186767,"height",0.173530997685659,"plants"
"Oriental",0.564588410029197,0.418373960644939,0.784685051186767,"height",0.0931676021883697,"plants"
"Palearctic",-0.387716751396907,0.418373960644939,0.784685051186767,"height",-0.513639651235043,"plants"
"Panamanian",0.896451850973518,0.418373960644939,0.784685051186767,"height",0.304630430773167,"plants"
"Saharo-Arabian",0.141550003314607,0.418373960644939,0.784685051186767,"height",-0.176391761835949,"plants"
"Sino-Japanese",0.21622789,0.418373960644939,0.784685051186767,"height",-0.128807137551053,"plants"
"Afrotropical",0.984962406015038,0.944086021505376,0.229796720116137,"photosynthesis",0.0408763845096612,"plants"
"Australian",0.885835095137421,0.944086021505376,0.229796720116137,"photosynthesis",-0.0582509263679556,"plants"
"Madagascan",NA,0.944086021505376,0.229796720116137,"photosynthesis",NA,"plants"
"Nearctic",0.932107496463932,0.944086021505376,0.229796720116137,"photosynthesis",-0.0119785250414443,"plants"
"Neotropical",0.92874109263658,0.944086021505376,0.229796720116137,"photosynthesis",-0.0153449288687968,"plants"
"Oceanina",0.958333333333333,0.944086021505376,0.229796720116137,"photosynthesis",0.014247311827957,"plants"
"Oriental",1,0.944086021505376,0.229796720116137,"photosynthesis",0.0559139784946237,"plants"
"Palearctic",0.978090766823161,0.944086021505376,0.229796720116137,"photosynthesis",0.0340047453177849,"plants"
"Panamanian",0.974683544303797,0.944086021505376,0.229796720116137,"photosynthesis",0.0305975227984211,"plants"
"Saharo-Arabian",0.969387755102041,0.944086021505376,0.229796720116137,"photosynthesis",0.0253017335966644,"plants"
"Sino-Japanese",0.979166666666667,0.944086021505376,0.229796720116137,"photosynthesis",0.0350806451612903,"plants"
"Afrotropical",0.345454545454545,0.420132325141777,0.493696609082784,"dispersal_synd",-0.0746777796872315,"plants"
"Australian",0.324,0.420132325141777,0.493696609082784,"dispersal_synd",-0.0961323251417769,"plants"
"Madagascan",NA,0.420132325141777,0.493696609082784,"dispersal_synd",NA,"plants"
"Nearctic",0.283292978208232,0.420132325141777,0.493696609082784,"dispersal_synd",-0.136839346933544,"plants"
"Neotropical",0.874125874125874,0.420132325141777,0.493696609082784,"dispersal_synd",0.453993548984097,"plants"
"Oceanina",NA,0.420132325141777,0.493696609082784,"dispersal_synd",NA,"plants"
"Oriental",0.568181818181818,0.420132325141777,0.493696609082784,"dispersal_synd",0.148049493040041,"plants"
"Palearctic",0.245798319327731,0.420132325141777,0.493696609082784,"dispersal_synd",-0.174334005814046,"plants"
"Panamanian",0.578014184397163,0.420132325141777,0.493696609082784,"dispersal_synd",0.157881859255386,"plants"
"Saharo-Arabian",0,0.420132325141777,0.493696609082784,"dispersal_synd",-0.420132325141777,"plants"
"Sino-Japanese",0.785714285714286,0.420132325141777,0.493696609082784,"dispersal_synd",0.365581960572509,"plants"
"Afrotropical",0.0851063829787234,0.106695869837297,0.308732228836035,"n_fixer",-0.0215894868585732,"plants"
"Australian",0.17048275862069,0.106695869837297,0.308732228836035,"n_fixer",0.063786888783393,"plants"
"Madagascan",0,0.106695869837297,0.308732228836035,"n_fixer",-0.106695869837297,"plants"
"Nearctic",0.0676930043015622,0.106695869837297,0.308732228836035,"n_fixer",-0.0390028655357345,"plants"
"Neotropical",0.116272677295217,0.106695869837297,0.308732228836035,"n_fixer",0.00957680745792053,"plants"
"Oceanina",0.0473867595818815,0.106695869837297,0.308732228836035,"n_fixer",-0.0593091102554151,"plants"
"Oriental",0.057753164556962,0.106695869837297,0.308732228836035,"n_fixer",-0.0489427052803346,"plants"
"Palearctic",0.0748071117074807,0.106695869837297,0.308732228836035,"n_fixer",-0.0318887581298159,"plants"
"Panamanian",0.0921680993314231,0.106695869837297,0.308732228836035,"n_fixer",-0.0145277705058735,"plants"
"Saharo-Arabian",0.247933884297521,0.106695869837297,0.308732228836035,"n_fixer",0.141238014460224,"plants"
"Sino-Japanese",0.0557324840764331,0.106695869837297,0.308732228836035,"n_fixer",-0.0509633857608635,"plants"
"Afrotropical",0.0709459459459459,0.10391741300335,0.305163809986375,"compound_leaf",-0.032971467057404,"plants"
"Australian",0.0817021276595745,0.10391741300335,0.305163809986375,"compound_leaf",-0.0222152853437755,"plants"
"Madagascan",NA,0.10391741300335,0.305163809986375,"compound_leaf",NA,"plants"
"Nearctic",0.0700636942675159,0.10391741300335,0.305163809986375,"compound_leaf",-0.0338537187358341,"plants"
"Neotropical",0.167811158798283,0.10391741300335,0.305163809986375,"compound_leaf",0.0638937457949333,"plants"
"Oceanina",0.0775095298602287,0.10391741300335,0.305163809986375,"compound_leaf",-0.0264078831431213,"plants"
"Oriental",0.0740740740740741,0.10391741300335,0.305163809986375,"compound_leaf",-0.0298433389292759,"plants"
"Palearctic",0.0836961780358007,0.10391741300335,0.305163809986375,"compound_leaf",-0.0202212349675493,"plants"
"Panamanian",0.195409836065574,0.10391741300335,0.305163809986375,"compound_leaf",0.0914924230622238,"plants"
"Saharo-Arabian",0.27906976744186,0.10391741300335,0.305163809986375,"compound_leaf",0.17515235443851,"plants"
"Sino-Japanese",0.0536130536130536,0.10391741300335,0.305163809986375,"compound_leaf",-0.0503043593902964,"plants"
"Afrotropical",0.844036697247706,0.577806864456079,0.493944910806274,"evergreen_decid",0.266229832791627,"plants"
"Australian",0.726748971193416,0.577806864456079,0.493944910806274,"evergreen_decid",0.148942106737337,"plants"
"Madagascan",NA,0.577806864456079,0.493944910806274,"evergreen_decid",NA,"plants"
"Nearctic",0.279497098646035,0.577806864456079,0.493944910806274,"evergreen_decid",-0.298309765810044,"plants"
"Neotropical",0.559666975023127,0.577806864456079,0.493944910806274,"evergreen_decid",-0.0181398894329523,"plants"
"Oceanina",0.879464285714286,0.577806864456079,0.493944910806274,"evergreen_decid",0.301657421258207,"plants"
"Oriental",0.873399715504979,0.577806864456079,0.493944910806274,"evergreen_decid",0.2955928510489,"plants"
"Palearctic",0.230248306997743,0.577806864456079,0.493944910806274,"evergreen_decid",-0.347558557458336,"plants"
"Panamanian",0.73900293255132,0.577806864456079,0.493944910806274,"evergreen_decid",0.161196068095241,"plants"
"Saharo-Arabian",0.2,0.577806864456079,0.493944910806274,"evergreen_decid",-0.377806864456079,"plants"
"Sino-Japanese",0.526315789473684,0.577806864456079,0.493944910806274,"evergreen_decid",-0.0514910749823949,"plants"
"Afrotropical",0.836327345309381,0.67306378909985,0.469109746797119,"woodiness",0.163263556209531,"plants"
"Australian",0.683232810615199,0.67306378909985,0.469109746797119,"woodiness",0.0101690215153493,"plants"
"Madagascan",1,0.67306378909985,0.469109746797119,"woodiness",0.32693621090015,"plants"
"Nearctic",0.411591355599214,0.67306378909985,0.469109746797119,"woodiness",-0.261472433500636,"plants"
"Neotropical",0.8740234375,0.67306378909985,0.469109746797119,"woodiness",0.20095964840015,"plants"
"Oceanina",0.869104908565929,0.67306378909985,0.469109746797119,"woodiness",0.196041119466079,"plants"
"Oriental",0.906605922551253,0.67306378909985,0.469109746797119,"woodiness",0.233542133451403,"plants"
"Palearctic",0.24621804903495,0.67306378909985,0.469109746797119,"woodiness",-0.426845740064899,"plants"
"Panamanian",0.893725992317542,0.67306378909985,0.469109746797119,"woodiness",0.220662203217692,"plants"
"Saharo-Arabian",0.731707317073171,0.67306378909985,0.469109746797119,"woodiness",0.058643527973321,"plants"
"Sino-Japanese",0.803695150115473,0.67306378909985,0.469109746797119,"woodiness",0.130631361015624,"plants"
"",8.64233913846905,11.4672966447659,2.68819002097749,"dtr",-0.525438582141169,"climate"
"Afrotropical",13.1290302798451,11.4672966447659,2.68819002097749,"dtr",0.30908038905578,"climate"
"Australian",13.991406081227,11.4672966447659,2.68819002097749,"dtr",0.46948121538359,"climate"
"Nearctic",11.9375907476058,11.4672966447659,2.68819002097749,"dtr",0.0874741181184894,"climate"
"Neotropical",11.2963248735182,11.4672966447659,2.68819002097749,"dtr",-0.0318005367763317,"climate"
"Oriental",11.3147019801291,11.4672966447659,2.68819002097749,"dtr",-0.0283824178064156,"climate"
"Palearctic",10.2044236214097,11.4672966447659,2.68819002097749,"dtr",-0.234892811427271,"climate"
"Panamanian",10.4828111814346,11.4672966447659,2.68819002097749,"dtr",-0.183113071555367,"climate"
"Saharo-Arabian",13.7986654325676,11.4672966447659,2.68819002097749,"dtr",0.433631694487481,"climate"
"Sino-Japanese",11.5637792115122,11.4672966447659,2.68819002097749,"dtr",0.0179456373978967,"climate"
"",291.109892265049,132.75657585913,116.669163183068,"frs",0.678642548234637,"climate"
"Afrotropical",6.67728455171454,132.75657585913,116.669163183068,"frs",-0.540328257560148,"climate"
"Australian",5.36154812054439,132.75657585913,116.669163183068,"frs",-0.545967007317467,"climate"
"Nearctic",195.317572577211,132.75657585913,116.669163183068,"frs",0.268112820094184,"climate"
"Neotropical",26.3820608220392,132.75657585913,116.669163183068,"frs",-0.455881023463656,"climate"
"Oriental",9.696549564128,132.75657585913,116.669163183068,"frs",-0.527388827251233,"climate"
"Palearctic",218.07311715648,132.75657585913,116.669163183068,"frs",0.365634495738512,"climate"
"Panamanian",2.81037974683544,132.75657585913,116.669163183068,"frs",-0.556900352102437,"climate"
"Saharo-Arabian",31.8629824513819,132.75657585913,116.669163183068,"frs",-0.432391861975704,"climate"
"Sino-Japanese",155.550778973658,132.75657585913,116.669163183068,"frs",0.0976873515359035,"climate"
"",2.42844675436596,2.62239137556031,0.501388300505166,"pre",-0.193407605441678,"climate"
"Afrotropical",2.64357856643745,2.62239137556031,0.501388300505166,"pre",0.0211285253921911,"climate"
"Australian",2.59186688637922,2.62239137556031,0.501388300505166,"pre",-0.0304399695309386,"climate"
"Nearctic",2.72442121525823,2.62239137556031,0.501388300505166,"pre",0.101747327964293,"climate"
"Neotropical",3.06326262274997,2.62239137556031,0.501388300505166,"pre",0.439650513130707,"climate"
"Oriental",3.04206574623994,2.62239137556031,0.501388300505166,"pre",0.418512328924299,"climate"
"Palearctic",2.55580756897428,2.62239137556031,0.501388300505166,"pre",-0.0663994418287627,"climate"
"Panamanian",3.24285739949493,2.62239137556031,0.501388300505166,"pre",0.618748007591605,"climate"
"Saharo-Arabian",1.84567020271295,2.62239137556031,0.501388300505166,"pre",-0.774570499615557,"climate"
"Sino-Japanese",2.74600156406928,2.62239137556031,0.501388300505166,"pre",0.123267922670345,"climate"
"",125.351885361644,114.59367363779,59.3791676316817,"rd0",0.0905891085454911,"climate"
"Afrotropical",72.7478298671489,114.59367363779,59.3791676316817,"rd0",-0.352361319968334,"climate"
"Australian",76.9913763771873,114.59367363779,59.3791676316817,"rd0",-0.316628699595813,"climate"
"Nearctic",114.652362673146,114.59367363779,59.3791676316817,"rd0",0.000494188767685486,"climate"
"Neotropical",150.201217733299,114.59367363779,59.3791676316817,"rd0",0.299831957197316,"climate"
"Oriental",87.6942710236467,114.59367363779,59.3791676316817,"rd0",-0.226505386375531,"climate"
"Palearctic",142.95365406388,114.59367363779,59.3791676316817,"rd0",0.238804125733141,"climate"
"Panamanian",150.735268987342,114.59367363779,59.3791676316817,"rd0",0.304328915266479,"climate"
"Saharo-Arabian",25.1959735821422,114.59367363779,59.3791676316817,"rd0",-0.7527698991182,"climate"
"Sino-Japanese",124.063067134447,114.59367363779,59.3791676316817,"rd0",0.0797366641731543,"climate"
"",28.2626704060108,51.8237354865579,17.2651000273831,"sunp",-0.682332133702623,"climate"
"Afrotropical",65.8723000857852,51.8237354865579,17.2651000273831,"sunp",0.40684863038574,"climate"
"Australian",72.8147058624973,51.8237354865579,17.2651000273831,"sunp",0.607901788655927,"climate"
"Nearctic",49.0096104271556,51.8237354865579,17.2651000273831,"sunp",-0.0814975023295259,"climate"
"Neotropical",51.8169656375789,51.8237354865579,17.2651000273831,"sunp",-0.000196055886390641,"climate"
"Oriental",58.1653377355536,51.8237354865579,17.2651000273831,"sunp",0.183653794039352,"climate"
"Palearctic",42.0251775118312,51.8237354865579,17.2651000273831,"sunp",-0.283767773114139,"climate"
"Panamanian",52.4296492616034,51.8237354865579,17.2651000273831,"sunp",0.0175473577935968,"climate"
"Saharo-Arabian",75.51339212256,51.8237354865579,17.2651000273831,"sunp",0.686056165282258,"climate"
"Sino-Japanese",51.4720466393134,51.8237354865579,17.2651000273831,"sunp",-0.0101849640803335,"climate"
"",-15.4461201035511,8.70325422055891,14.7500916668489,"tmp",-0.818617770979216,"climate"
"Afrotropical",24.5324867264844,8.70325422055891,14.7500916668489,"tmp",0.536580818053557,"climate"
"Australian",21.5556412359581,8.70325422055891,14.7500916668489,"tmp",0.435671428547292,"climate"
"Nearctic",3.24700433751639,8.70325422055891,14.7500916668489,"tmp",-0.184956473704687,"climate"
"Neotropical",21.4820393570664,8.70325422055891,14.7500916668489,"tmp",0.433176465107263,"climate"
"Oriental",24.4977044944407,8.70325422055891,14.7500916668489,"tmp",0.535401766667662,"climate"
"Palearctic",-2.15663639552869,8.70325422055891,14.7500916668489,"tmp",-0.368129597475498,"climate"
"Panamanian",24.0001727320675,8.70325422055891,14.7500916668489,"tmp",0.518536388010681,"climate"
"Saharo-Arabian",21.3165564792463,8.70325422055891,14.7500916668489,"tmp",0.427566910890324,"climate"
"Sino-Japanese",7.35424867693405,8.70325422055891,14.7500916668489,"tmp",-0.0457287172884752,"climate"
"",4.58582405034604,3.14630600955625,1.17706257791784,"wnd",0.611487472202297,"climate"
"Afrotropical",2.15791762305534,3.14630600955625,1.17706257791784,"wnd",-0.419853797514025,"climate"
"Australian",3.45065011341542,3.14630600955625,1.17706257791784,"wnd",0.129281190978625,"climate"
"Nearctic",3.93137852866769,3.14630600955625,1.17706257791784,"wnd",0.333488012379168,"climate"
"Neotropical",2.58519532355946,3.14630600955625,1.17706257791784,"wnd",-0.238352104859777,"climate"
"Oriental",1.85483352473421,3.14630600955625,1.17706257791784,"wnd",-0.548599755463546,"climate"
"Palearctic",3.40050327441167,3.14630600955625,1.17706257791784,"wnd",0.107979503224495,"climate"
"Panamanian",3.39557225738397,3.14630600955625,1.17706257791784,"wnd",0.105884874986281,"climate"
"Saharo-Arabian",2.98789497952209,3.14630600955625,1.17706257791784,"wnd",-0.067290827610192,"climate"
"Sino-Japanese",2.29987339200412,3.14630600955625,1.17706257791784,"wnd",-0.359552938574183,"climate"
"",74.8365599341039,102.409088635629,72.1732482588827,"pre.cv",-0.191016265490947,"climate"
"Afrotropical",172.280389163247,102.409088635629,72.1732482588827,"pre.cv",0.484052624852021,"climate"
"Australian",131.803265081551,102.409088635629,72.1732482588827,"pre.cv",0.203636230563476,"climate"
"Nearctic",68.0675399623442,102.409088635629,72.1732482588827,"pre.cv",-0.237910510485155,"climate"
"Neotropical",79.6375340054409,102.409088635629,72.1732482588827,"pre.cv",-0.157756199004012,"climate"
"Oriental",123.775783003602,102.409088635629,72.1732482588827,"pre.cv",0.148023643686722,"climate"
"Palearctic",69.1370334417673,102.409088635629,72.1732482588827,"pre.cv",-0.230501300665563,"climate"
"Panamanian",73.4374894514768,102.409088635629,72.1732482588827,"pre.cv",-0.200708710519946,"climate"
"Saharo-Arabian",238.431276727513,102.409088635629,72.1732482588827,"pre.cv",0.942331067073335,"climate"
"Sino-Japanese",83.4358830845771,102.409088635629,72.1732482588827,"pre.cv",-0.131442092525724,"climate"
"",7.62061346163904,5.71932394508733,4.4665571386666,"nrd.dm",0.212836135028075,"climate"
"Afrotropical",1.15189469291229,5.71932394508733,4.4665571386666,"nrd.dm",-0.511291931388853,"climate"
"Australian",3.76103370058328,5.71932394508733,4.4665571386666,"nrd.dm",-0.219216969995894,"climate"
"Nearctic",6.45913758986048,5.71932394508733,4.4665571386666,"nrd.dm",0.0828169910073077,"climate"
"Neotropical",6.59507921267403,5.71932394508733,4.4665571386666,"nrd.dm",0.0980347100012854,"climate"
"Oriental",1.71237928694472,5.71932394508733,4.4665571386666,"nrd.dm",-0.448549580106658,"climate"
"Palearctic",8.47834191768589,5.71932394508733,4.4665571386666,"nrd.dm",0.308852868881267,"climate"
"Panamanian",4.97208860759494,5.71932394508733,4.4665571386666,"nrd.dm",-0.0836477978781057,"climate"
"Saharo-Arabian",0.484832786351678,5.71932394508733,4.4665571386666,"nrd.dm",-0.585964871401857,"climate"
"Sino-Japanese",4.93865433787239,5.71932394508733,4.4665571386666,"nrd.dm",-0.0873905317875309,"climate"
"",0.443854923905654,20.4323442979639,9.24596852368639,"max.temp",-1.08092999250709,"climate"
"Afrotropical",28.1379348960145,20.4323442979639,9.24596852368639,"max.temp",0.416700023275566,"climate"
"Australian",28.0581456578095,20.4323442979639,9.24596852368639,"max.temp",0.412385210933268,"climate"
"Nearctic",17.7431850061368,20.4323442979639,9.24596852368639,"max.temp",-0.145423342343099,"climate"
"Neotropical",24.0866169356328,20.4323442979639,9.24596852368639,"max.temp",0.197614378002007,"climate"
"Oriental",29.7736701988829,20.4323442979639,9.24596852368639,"max.temp",0.505156700295286,"climate"
"Palearctic",15.8063465739663,20.4323442979639,9.24596852368639,"max.temp",-0.250162960870282,"climate"
"Panamanian",25.689082278481,20.4323442979639,9.24596852368639,"max.temp",0.284271894666867,"climate"
"Saharo-Arabian",30.5060389487103,20.4323442979639,9.24596852368639,"max.temp",0.544761461438004,"climate"
"Sino-Japanese",18.063370399001,20.4323442979639,9.24596852368639,"max.temp",-0.128108477380929,"climate"
"",NA,0.84110362677965,0.701793183437222,"annual_aridity",NA,"climate"
"Afrotropical",0.603821229701411,0.84110362677965,0.701793183437222,"annual_aridity",-0.169054361511524,"climate"
"Australian",0.27848003369316,0.84110362677965,0.701793183437222,"annual_aridity",-0.400847148679108,"climate"
"Nearctic",0.980746280030288,0.84110362677965,0.701793183437222,"annual_aridity",0.09948989000342,"climate"
"Neotropical",1.29329867653546,0.84110362677965,0.701793183437222,"annual_aridity",0.322171161267954,"climate"
"Oriental",1.08649643623674,0.84110362677965,0.701793183437222,"annual_aridity",0.174832710867335,"climate"
"Palearctic",0.917709527704332,0.84110362677965,0.701793183437222,"annual_aridity",0.0545786869498247,"climate"
"Panamanian",1.53151817571574,0.84110362677965,0.701793183437222,"annual_aridity",0.49189317111531,"climate"
"Saharo-Arabian",0.0954632602214958,0.84110362677965,0.701793183437222,"annual_aridity",-0.531239390860266,"climate"
"Sino-Japanese",0.931042240565166,0.84110362677965,0.701793183437222,"annual_aridity",0.0640777196958638,"climate"
"Artic seas",-1.10316474642444,13.7250868942447,11.3683198045905,"mean_sst",-0.652174283251665,"marine_climate"
"Australia",21.9536644004263,13.7250868942447,11.3683198045905,"mean_sst",0.361908252390071,"marine_climate"
"Black sea",14.9265449461988,13.7250868942447,11.3683198045905,"mean_sst",0.0528423756811021,"marine_climate"
"Caribbean and Gulf of Mexico",25.871204665591,13.7250868942447,11.3683198045905,"mean_sst",0.534209011539317,"marine_climate"
"Chile",14.4082990197732,13.7250868942447,11.3683198045905,"mean_sst",0.03004894906513,"marine_climate"
"Gulf of California",25.4295218808723,13.7250868942447,11.3683198045905,"mean_sst",0.514782975312735,"marine_climate"
"Gulfs of Aqaba-Aden-Suez-Red Sea",27.8840748241082,13.7250868942447,11.3683198045905,"mean_sst",0.622738811594047,"marine_climate"
"Indo-Pacific seas and Indian Ocean",28.1329633650772,13.7250868942447,11.3683198045905,"mean_sst",0.633685395840757,"marine_climate"
"Inner baltic sea",7.5896038192691,13.7250868942447,11.3683198045905,"mean_sst",-0.269850038547387,"marine_climate"
"Mediterranean",19.7022385234725,13.7250868942447,11.3683198045905,"mean_sst",0.262886324978924,"marine_climate"
"Mid-south Tropical Pacific",24.7185161873316,13.7250868942447,11.3683198045905,"mean_sst",0.483511613063867,"marine_climate"
"Mid-tropical North Pacific Ocean",21.9975094801506,13.7250868942447,11.3683198045905,"mean_sst",0.363836641126402,"marine_climate"
"N American Boreal",-0.0509529364721408,13.7250868942447,11.3683198045905,"mean_sst",-0.605896036859994,"marine_climate"
"N Pacific",6.88738560326751,13.7250868942447,11.3683198045905,"mean_sst",-0.300734911073494,"marine_climate"
"NE Atlantic",10.1916340960828,13.7250868942447,11.3683198045905,"mean_sst",-0.155407872882632,"marine_climate"
"NW Pacific",22.2987154153386,13.7250868942447,11.3683198045905,"mean_sst",0.377084242371152,"marine_climate"
"New Zealand",13.8241285300462,13.7250868942447,11.3683198045905,"mean_sst",0.00435603666610384,"marine_climate"
"Norwegian sea",3.17153388143858,13.7250868942447,11.3683198045905,"mean_sst",-0.464165030286381,"marine_climate"
"Offshore Indian Ocean",22.4213664609488,13.7250868942447,11.3683198045905,"mean_sst",0.382478665105489,"marine_climate"
"Offshore S Atlantic",22.6896390678639,13.7250868942447,11.3683198045905,"mean_sst",0.394277796882495,"marine_climate"
"Offshore W Pacific",23.1434299431901,13.7250868942447,11.3683198045905,"mean_sst",0.414236369614719,"marine_climate"
"Offshore and NW North Atlantic",13.7454153711657,13.7250868942447,11.3683198045905,"mean_sst",0.000894084494036132,"marine_climate"
"Offshore mid-E Pacific",26.1962907544821,13.7250868942447,11.3683198045905,"mean_sst",0.548506906675933,"marine_climate"
"Rio de la Plata",10.373092270828,13.7250868942447,11.3683198045905,"mean_sst",-0.147427002452163,"marine_climate"
"S Africa",19.7021357044122,13.7250868942447,11.3683198045905,"mean_sst",0.262881802804053,"marine_climate"
"South-east Pacific",19.5043258400712,13.7250868942447,11.3683198045905,"mean_sst",0.254181754435376,"marine_climate"
"Southern Ocean",2.20005327668925,13.7250868942447,11.3683198045905,"mean_sst",-0.506892567048544,"marine_climate"
"Tasman Sea",20.9347696761144,13.7250868942447,11.3683198045905,"mean_sst",0.317095353834015,"marine_climate"
"Tropical E Atlantic",26.8749096513784,13.7250868942447,11.3683198045905,"mean_sst",0.578353836941841,"marine_climate"
"Artic seas",-0.720313859640443,-0.3133209783858,1.49710277382734,"mean_nitrate",-0.135926834272762,"marine_climate"
"Australia",-0.6998448134427,-0.3133209783858,1.49710277382734,"mean_nitrate",-0.129090614824242,"marine_climate"
"Black sea",-0.427016563965899,-0.3133209783858,1.49710277382734,"mean_nitrate",-0.0379718705915681,"marine_climate"
"Caribbean and Gulf of Mexico",-1.00996456148657,-0.3133209783858,1.49710277382734,"mean_nitrate",-0.232663914354991,"marine_climate"
"Chile",-0.0465820011256716,-0.3133209783858,1.49710277382734,"mean_nitrate",0.0890850587960006,"marine_climate"
"Gulf of California",-0.525583957244674,-0.3133209783858,1.49710277382734,"mean_nitrate",-0.070891251612681,"marine_climate"
"Gulfs of Aqaba-Aden-Suez-Red Sea",-0.687499777711905,-0.3133209783858,1.49710277382734,"mean_nitrate",-0.124967639452539,"marine_climate"
"Indo-Pacific seas and Indian Ocean",-1.41824800689921,-0.3133209783858,1.49710277382734,"mean_nitrate",-0.369021769189789,"marine_climate"
"Inner baltic sea",0.213419170176874,-0.3133209783858,1.49710277382734,"mean_nitrate",0.175919835889444,"marine_climate"
"Mediterranean",-0.676383550721495,-0.3133209783858,1.49710277382734,"mean_nitrate",-0.121255059666854,"marine_climate"
"Mid-south Tropical Pacific",-0.900067756553319,-0.3133209783858,1.49710277382734,"mean_nitrate",-0.195960754473622,"marine_climate"
"Mid-tropical North Pacific Ocean",-1.43615507415759,-0.3133209783858,1.49710277382734,"mean_nitrate",-0.375002342992546,"marine_climate"
"N American Boreal",0.273040901487784,-0.3133209783858,1.49710277382734,"mean_nitrate",0.195832206754433,"marine_climate"
"N Pacific",0.612737592961742,-0.3133209783858,1.49710277382734,"mean_nitrate",0.309283566745412,"marine_climate"
"NE Atlantic",0.691070964069524,-0.3133209783858,1.49710277382734,"mean_nitrate",0.335445221268142,"marine_climate"
"NW Pacific",-0.222713677383134,-0.3133209783858,1.49710277382734,"mean_nitrate",0.0302608820806031,"marine_climate"
"New Zealand",-0.320305131864002,-0.3133209783858,1.49710277382734,"mean_nitrate",-0.00233255645514113,"marine_climate"
"Norwegian sea",0.13209834063202,-0.3133209783858,1.49710277382734,"mean_nitrate",0.148760434755961,"marine_climate"
"Offshore Indian Ocean",-0.996971811331292,-0.3133209783858,1.49710277382734,"mean_nitrate",-0.228324616351401,"marine_climate"
"Offshore S Atlantic",-1.21202467669354,-0.3133209783858,1.49710277382734,"mean_nitrate",-0.300147629815087,"marine_climate"
"Offshore W Pacific",-0.737076278205364,-0.3133209783858,1.49710277382734,"mean_nitrate",-0.141525120127937,"marine_climate"
"Offshore and NW North Atlantic",-0.218510204212402,-0.3133209783858,1.49710277382734,"mean_nitrate",0.0316647513553845,"marine_climate"
"Offshore mid-E Pacific",0.0646058738584826,-0.3133209783858,1.49710277382734,"mean_nitrate",0.126219408196711,"marine_climate"
"Rio de la Plata",0.77269736593474,-0.3133209783858,1.49710277382734,"mean_nitrate",0.362706676958501,"marine_climate"
"S Africa",-0.640984658318208,-0.3133209783858,1.49710277382734,"mean_nitrate",-0.109432593961046,"marine_climate"
"South-east Pacific",-0.139800626149353,-0.3133209783858,1.49710277382734,"mean_nitrate",0.0579520508778574,"marine_climate"
"Southern Ocean",1.32685438516625,-0.3133209783858,1.49710277382734,"mean_nitrate",0.547783155647673,"marine_climate"
"Tasman Sea",-0.683792441105389,-0.3133209783858,1.49710277382734,"mean_nitrate",-0.123729469077289,"marine_climate"
"Tropical E Atlantic",-1.17035729858163,-0.3133209783858,1.49710277382734,"mean_nitrate",-0.286231625235995,"marine_climate"
"Artic seas",-0.764524202290747,-0.518878293054537,0.574158893822017,"mean_phosphate",-0.213918056377228,"marine_climate"
"Australia",-0.743452994230775,-0.518878293054537,0.574158893822017,"mean_phosphate",-0.195568425041112,"marine_climate"
"Black sea",-0.699272628165602,-0.518878293054537,0.574158893822017,"mean_phosphate",-0.157094435923678,"marine_climate"
"Caribbean and Gulf of Mexico",-1.12706336668872,-0.518878293054537,0.574158893822017,"mean_phosphate",-0.529631326953467,"marine_climate"
"Chile",-0.388174609963633,-0.518878293054537,0.574158893822017,"mean_phosphate",0.113821874482207,"marine_climate"
"Gulf of California",-0.423045645206515,-0.518878293054537,0.574158893822017,"mean_phosphate",0.0834548144069409,"marine_climate"
"Gulfs of Aqaba-Aden-Suez-Red Sea",-0.75487343765799,-0.518878293054537,0.574158893822017,"mean_phosphate",-0.205513793431378,"marine_climate"
"Indo-Pacific seas and Indian Ocean",-0.803984959672517,-0.518878293054537,0.574158893822017,"mean_phosphate",-0.248282025834437,"marine_climate"
"Inner baltic sea",-0.695522494289726,-0.518878293054537,0.574158893822017,"mean_phosphate",-0.153828672808077,"marine_climate"
"Mediterranean",-1.0577860825375,-0.518878293054537,0.574158893822017,"mean_phosphate",-0.46930196090459,"marine_climate"
"Mid-south Tropical Pacific",-0.638369227918428,-0.518878293054537,0.574158893822017,"mean_phosphate",-0.104057375187966,"marine_climate"
"Mid-tropical North Pacific Ocean",-0.750803891671581,-0.518878293054537,0.574158893822017,"mean_phosphate",-0.201969873768896,"marine_climate"
"N American Boreal",-0.347342841854631,-0.518878293054537,0.574158893822017,"mean_phosphate",0.149379773652936,"marine_climate"
"N Pacific",-0.0209313523302514,-0.518878293054537,0.574158893822017,"mean_phosphate",0.433631653260294,"marine_climate"
"NE Atlantic",-0.360112872330064,-0.518878293054537,0.574158893822017,"mean_phosphate",0.138259132125966,"marine_climate"
"NW Pacific",-0.689521666367764,-0.518878293054537,0.574158893822017,"mean_phosphate",-0.148602917371271,"marine_climate"
"New Zealand",-0.459937342525964,-0.518878293054537,0.574158893822017,"mean_phosphate",0.0513280828380278,"marine_climate"
"Norwegian sea",-0.622177541650759,-0.518878293054537,0.574158893822017,"mean_phosphate",-0.0899570220959112,"marine_climate"
"Offshore Indian Ocean",-0.680525128978852,-0.518878293054537,0.574158893822017,"mean_phosphate",-0.140768381073292,"marine_climate"
"Offshore S Atlantic",-1.03295856080236,-0.518878293054537,0.574158893822017,"mean_phosphate",-0.447681184842171,"marine_climate"
"Offshore W Pacific",-0.968628427761043,-0.518878293054537,0.574158893822017,"mean_phosphate",-0.391659991289731,"marine_climate"
"Offshore and NW North Atlantic",-0.678908770189981,-0.518878293054537,0.574158893822017,"mean_phosphate",-0.13936079268072,"marine_climate"
"Offshore mid-E Pacific",-0.357144056734894,-0.518878293054537,0.574158893822017,"mean_phosphate",0.140844492752714,"marine_climate"
"Rio de la Plata",-0.0830946218707043,-0.518878293054537,0.574158893822017,"mean_phosphate",0.379497449114601,"marine_climate"
"S Africa",-0.54474038208675,-0.518878293054537,0.574158893822017,"mean_phosphate",-0.0225217176904251,"marine_climate"
"South-east Pacific",-0.370483674043184,-0.518878293054537,0.574158893822017,"mean_phosphate",0.129227832755085,"marine_climate"
"Southern Ocean",0.177326239993158,-0.518878293054537,0.574158893822017,"mean_phosphate",0.606282111571288,"marine_climate"
"Tasman Sea",-0.734434167840696,-0.518878293054537,0.574158893822017,"mean_phosphate",-0.187714478609975,"marine_climate"
"Tropical E Atlantic",-1.00571819621166,-0.518878293054537,0.574158893822017,"mean_phosphate",-0.423959210939299,"marine_climate"
"Artic seas",0.520699530006462,0.561770508709619,0.63662154864634,"mean_silicate",-0.0322569812398646,"marine_climate"
"Australia",0.167692000536566,0.561770508709619,0.63662154864634,"mean_silicate",-0.309507672973833,"marine_climate"
"Black sea",1.0206781347458,0.561770508709619,0.63662154864634,"mean_silicate",0.360424201012329,"marine_climate"
"Caribbean and Gulf of Mexico",0.247174758565545,0.561770508709619,0.63662154864634,"mean_silicate",-0.247082234973827,"marine_climate"
"Chile",-0.0377486594912931,0.561770508709619,0.63662154864634,"mean_silicate",-0.470859939846272,"marine_climate"
"Gulf of California",0.321948673711354,0.561770508709619,0.63662154864634,"mean_silicate",-0.18835510320708,"marine_climate"
"Gulfs of Aqaba-Aden-Suez-Red Sea",0.48762785131285,0.561770508709619,0.63662154864634,"mean_silicate",-0.058231344473353,"marine_climate"
"Indo-Pacific seas and Indian Ocean",0.403063156633106,0.561770508709619,0.63662154864634,"mean_silicate",-0.124648115048866,"marine_climate"
"Inner baltic sea",1.06267070062446,0.561770508709619,0.63662154864634,"mean_silicate",0.393404993107692,"marine_climate"
"Mediterranean",0.115541913143942,0.561770508709619,0.63662154864634,"mean_silicate",-0.350466141551838,"marine_climate"
"Mid-south Tropical Pacific",0.00781261800924318,0.561770508709619,0.63662154864634,"mean_silicate",-0.435076296017836,"marine_climate"
"Mid-tropical North Pacific Ocean",0.43112916279893,0.561770508709619,0.63662154864634,"mean_silicate",-0.102605186855891,"marine_climate"
"N American Boreal",0.505639046238606,0.561770508709619,0.63662154864634,"mean_silicate",-0.0440854245276223,"marine_climate"
"N Pacific",1.15523715999772,0.561770508709619,0.63662154864634,"mean_silicate",0.466106317442441,"marine_climate"
"NE Atlantic",0.437535429296953,0.561770508709619,0.63662154864634,"mean_silicate",-0.0975737309527369,"marine_climate"
"NW Pacific",0.822666178312257,0.561770508709619,0.63662154864634,"mean_silicate",0.204906408020107,"marine_climate"
"New Zealand",0.294630794567568,0.561770508709619,0.63662154864634,"mean_silicate",-0.209810455450396,"marine_climate"
"Norwegian sea",0.278160942362395,0.561770508709619,0.63662154864634,"mean_silicate",-0.222745811031898,"marine_climate"
"Offshore Indian Ocean",0.511746943823476,0.561770508709619,0.63662154864634,"mean_silicate",-0.0392883063670313,"marine_climate"
"Offshore S Atlantic",0.121852451498123,0.561770508709619,0.63662154864634,"mean_silicate",-0.345509870147265,"marine_climate"
"Offshore W Pacific",0.622460407980564,0.561770508709619,0.63662154864634,"mean_silicate",0.0476656024289403,"marine_climate"
"Offshore and NW North Atlantic",0.193946053725801,0.561770508709619,0.63662154864634,"mean_silicate",-0.288887845350138,"marine_climate"
"Offshore mid-E Pacific",0.371169152671819,0.561770508709619,0.63662154864634,"mean_silicate",-0.149697537291251,"marine_climate"
"Rio de la Plata",0.427680497175906,0.561770508709619,0.63662154864634,"mean_silicate",-0.105313754945015,"marine_climate"
"S Africa",0.558273712528323,0.561770508709619,0.63662154864634,"mean_silicate",-0.00274636963572054,"marine_climate"
"South-east Pacific",0.224080691187207,0.561770508709619,0.63662154864634,"mean_silicate",-0.265220222470044,"marine_climate"
"Southern Ocean",1.2484626520252,0.561770508709619,0.63662154864634,"mean_silicate",0.539325243369245,"marine_climate"
"Tasman Sea",0.158682487137358,0.561770508709619,0.63662154864634,"mean_silicate",-0.316583708507319,"marine_climate"
"Tropical E Atlantic",0.1639996747577,0.561770508709619,0.63662154864634,"mean_silicate",-0.312407610767893,"marine_climate"
"",59328.5307692308,51414.8771674388,21116.4838881874,"al",0.18738094949176,"seds"
"Australian",44681.8929115854,51414.8771674388,21116.4838881874,"al",-0.159424842968764,"seds"
"Nearctic",50966.1963134569,51414.8771674388,21116.4838881874,"al",-0.0106239480104188,"seds"
"Neotropical",55184.8739495798,51414.8771674388,21116.4838881874,"al",0.0892666791048958,"seds"
"Palearctic",74989.0269945355,51414.8771674388,21116.4838881874,"al",0.558193067366774,"seds"
"",691.99,536.346171777337,453.772203367132,"ba",0.171499958644158,"seds"
"Australian",327.870884146341,536.346171777337,453.772203367132,"ba",-0.229713594270477,"seds"
"Nearctic",600.905620467365,536.346171777337,453.772203367132,"ba",0.0711364074429604,"seds"
"Neotropical",745.747899159664,536.346171777337,453.772203367132,"ba",0.230734414568038,"seds"
"Palearctic",404.270513661202,536.346171777337,453.772203367132,"ba",-0.145530794015248,"seds"
"",76554.6769230769,21720.7341936907,34002.1486689233,"ca",0.806330553743834,"seds"
"Australian",12734.390625,21720.7341936907,34002.1486689233,"ca",-0.132143760328063,"seds"
"Nearctic",22181.7411361805,21720.7341936907,34002.1486689233,"ca",0.00677908544807828,"seds"
"Neotropical",12660.5042016807,21720.7341936907,34002.1486689233,"ca",-0.133230256714493,"seds"
"Palearctic",42888.6191256831,21720.7341936907,34002.1486689233,"ca",0.311272754232426,"seds"
"",12.2692307692308,10.4188249135966,8.24379330287053,"co",0.112230243266159,"seds"
"Australian",9.59782774390244,10.4188249135966,8.24379330287053,"co",-0.0497948662424781,"seds"
"Nearctic",10.4565068493151,10.4188249135966,8.24379330287053,"co",0.00228547310285912,"seds"
"Neotropical",16.9420168067227,10.4188249135966,8.24379330287053,"co",0.395642615812231,"seds"
"Palearctic",11.4897267759563,10.4188249135966,8.24379330287053,"co",0.0649520083179913,"seds"
"",80.2769230769231,57.4252942041777,101.517234778469,"cr",0.112550489198274,"seds"
"Australian",65.2184451219512,57.4252942041777,101.517234778469,"cr",0.0383833884698482,"seds"
"Nearctic",52.0013098236776,57.4252942041777,101.517234778469,"cr",-0.0267145987197954,"seds"
"Neotropical",53.6302521008403,57.4252942041777,101.517234778469,"cr",-0.0186916148357414,"seds"
"Palearctic",94.0792349726776,57.4252942041777,101.517234778469,"cr",0.180530630333293,"seds"
"",21.4923076923077,22.6189352158247,55.868869867321,"cu",-0.0100827842606495,"seds"
"Australian",15.9515243902439,22.6189352158247,55.868869867321,"cu",-0.0596701780563554,"seds"
"Nearctic",24.4102538275584,22.6189352158247,55.868869867321,"cu",0.0160314555850853,"seds"
"Neotropical",19.1739495798319,22.6189352158247,55.868869867321,"cu",-0.0308309944712861,"seds"
"Palearctic",22.7672131147541,22.6189352158247,55.868869867321,"cu",0.0013270171678928,"seds"
"",30740.9076923077,26285.5494400236,17604.3845014243,"fe",0.126541153765519,"seds"
"Australian",26104.4039634146,26285.5494400236,17604.3845014243,"fe",-0.00514489661919976,"seds"
"Nearctic",26132.8561761438,26285.5494400236,17604.3845014243,"fe",-0.00433679643464382,"seds"
"Neotropical",25045.3781512605,26285.5494400236,17604.3845014243,"fe",-0.0352233640620249,"seds"
"Palearctic",28555.2789071038,26285.5494400236,17604.3845014243,"fe",0.0644648913143375,"seds"
"",14695.3,13835.6313272513,5992.84205123189,"k",0.071724622925108,"seds"
"Australian",10516.5392530488,13835.6313272513,5992.84205123189,"k",-0.276921371014632,"seds"
"Nearctic",14361.3079326681,13835.6313272513,5992.84205123189,"k",0.0438587068475046,"seds"
"Neotropical",18736.1344537815,13835.6313272513,5992.84205123189,"k",0.408863030648609,"seds"
"Palearctic",17004.7290710383,13835.6313272513,5992.84205123189,"k",0.264406913839443,"seds"
"",10518.8153846154,8418.06785083848,8274.05072706935,"mg",0.126947948657367,"seds"
"Australian",4404.71379573171,8418.06785083848,8274.05072706935,"mg",-0.242526556066227,"seds"
"Nearctic",9306.68352644836,8418.06785083848,8274.05072706935,"mg",0.0536989501830518,"seds"
"Neotropical",5752.10084033613,8418.06785083848,8274.05072706935,"mg",-0.161104101149657,"seds"
"Palearctic",10605.4676502732,8418.06785083848,8274.05072706935,"mg",0.132184335798091,"seds"
"",651.308461538462,566.128466804063,511.677448044242,"mn",0.0832360259964335,"seds"
"Australian",380.197789634146,566.128466804063,511.677448044242,"mn",-0.181687387123069,"seds"
"Nearctic",604.827652279145,566.128466804063,511.677448044242,"mn",0.0378159967993505,"seds"
"Neotropical",512.71186440678,566.128466804063,511.677448044242,"mn",-0.0521975344051754,"seds"
"Palearctic",685.622229508197,566.128466804063,511.677448044242,"mn",0.116766688820143,"seds"
"",13635.9615384615,8277.00854933726,6030.32724853822,"na",0.44433351361017,"seds"
"Australian",3965.84413109756,8277.00854933726,6030.32724853822,"na",-0.357456920707309,"seds"
"Nearctic",9393.68473105258,8277.00854933726,6030.32724853822,"na",0.0925883567915825,"seds"
"Neotropical",10326.8907563025,8277.00854933726,6030.32724853822,"na",0.169964425020397,"seds"
"Palearctic",8204.60284153006,8277.00854933726,6030.32724853822,"na",-0.00600346422532517,"seds"
"",17.4230769230769,18.6997573350982,27.6792590271337,"ni",-0.0230620409811139,"seds"
"Australian",20.0115472560976,18.6997573350982,27.6792590271337,"ni",0.0236962615168538,"seds"
"Nearctic",16.7958299758259,18.6997573350982,27.6792590271337,"ni",-0.0343926720980107,"seds"
"Neotropical",18.2453781512605,18.6997573350982,27.6792590271337,"ni",-0.00820793619135981,"seds"
"Palearctic",35.6732240437158,18.6997573350982,27.6792590271337,"ni",0.306609846238636,"seds"
"",13.6341666666667,21.227429303787,114.765185528072,"pb",-0.0330817338123111,"seds"
"Australian",14.496006097561,21.227429303787,114.765185528072,"pb",-0.0293269390680308,"seds"
"Nearctic",21.1157407407407,21.227429303787,114.765185528072,"pb",-0.000486596011378999,"seds"
"Neotropical",60.9151260504202,21.227429303787,114.765185528072,"pb",0.172908258562983,"seds"
"Palearctic",36.4978142076503,21.227429303787,114.765185528072,"pb",0.066528820711609,"seds"
"",10.8636363636364,7.90051052466227,4.78033953964928,"sc",0.309928386299469,"seds"
"Australian",7.99012957317073,7.90051052466227,4.78033953964928,"sc",0.00937371161244322,"seds"
"Nearctic",7.88540300615354,7.90051052466227,4.78033953964928,"sc",-0.0015801721178409,"seds"
"Neotropical",5.28487394957983,7.90051052466227,4.78033953964928,"sc",-0.273582718694741,"seds"
"Palearctic",10.8738461538462,7.90051052466227,4.78033953964928,"sc",0.310996280130557,"seds"
"",1064.85,141.252404781763,295.06960223741,"sr",1.56505039525406,"seds"
"Australian",125.151105182927,141.252404781763,295.06960223741,"sr",-0.0272839009453112,"seds"
"Nearctic",NA,141.252404781763,295.06960223741,"sr",NA,"seds"
"Neotropical",252.100840336134,141.252404781763,295.06960223741,"sr",0.187834386724093,"seds"
"Palearctic",171.092941176471,141.252404781763,295.06960223741,"sr",0.0505652499756627,"seds"
"",5.94,10.5856390809726,14.3471843910342,"th",-0.16190072401508,"seds"
"Australian",9.0271875,10.5856390809726,14.3471843910342,"th",-0.0543121053754097,"seds"
"Nearctic",10.7401333737496,10.5856390809726,14.3471843910342,"th",0.00538413282238171,"seds"
"Neotropical",NA,10.5856390809726,14.3471843910342,"th",NA,"seds"
"Palearctic",13.4498360655738,10.5856390809726,14.3471843910342,"th",0.099817389479956,"seds"
"",3682.03230769231,3650.45262028899,2711.46738824595,"ti",0.00582335740791358,"seds"
"Australian",3610.30144817073,3650.45262028899,2711.46738824595,"ti",-0.00740395630283304,"seds"
"Nearctic",3609.59729895641,3650.45262028899,2711.46738824595,"ti",-0.0075338028238293,"seds"
"Neotropical",4905,3650.45262028899,2711.46738824595,"ti",0.231341041597881,"seds"
"Palearctic",4064.45405464481,3650.45262028899,2711.46738824595,"ti",0.0763426910739346,"seds"
"",3.24,3.6673543205177,4.71086657022563,"u",-0.0453583554264447,"seds"
"Australian",2.14134146341463,3.6673543205177,4.71086657022563,"u",-0.161967319001139,"seds"
"Nearctic",4.08358190734558,3.6673543205177,4.71086657022563,"u",0.04417739078608,"seds"
"Neotropical",NA,3.6673543205177,4.71086657022563,"u",NA,"seds"
"Palearctic",3.68949726775956,3.6673543205177,4.71086657022563,"u",0.00235019894023462,"seds"
"",99.3076923076923,74.0174882283696,58.588098696616,"v",0.215830558099195,"seds"
"Australian",63.7403582317073,74.0174882283696,58.588098696616,"v",-0.0877066351809767,"seds"
"Nearctic",77.1268017336962,74.0174882283696,58.588098696616,"v",0.0265353678861246,"seds"
"Neotropical",55.781512605042,74.0174882283696,58.588098696616,"v",-0.155628668868042,"seds"
"Palearctic",71.7890710382514,74.0174882283696,58.588098696616,"v",-0.0190176609216965,"seds"
"",129.646153846154,74.4312809886776,215.662330596539,"zn",0.128012325343855,"seds"
"Australian",35.0099085365854,74.4312809886776,215.662330596539,"zn",-0.0913960549880213,"seds"
"Nearctic",81.0295671611461,74.4312809886776,215.662330596539,"zn",0.0152977252777923,"seds"
"Neotropical",43.7605042016807,74.4312809886776,215.662330596539,"zn",-0.0711083310241504,"seds"
"Palearctic",119.713661202186,74.4312809886776,215.662330596539,"zn",0.104984445100481,"seds"
"",71.1676528599606,73.020896,30.4522482262973,"T_BS",-0.0304286751879136,"hwsd_soil"
"Afrotropical",77.0870405609913,73.020896,30.4522482262973,"T_BS",0.0667626332672538,"hwsd_soil"
"Australian",84.1023471734132,73.020896,30.4522482262973,"T_BS",0.181947997584029,"hwsd_soil"
"Nearctic",78.9119981669694,73.020896,30.4522482262973,"T_BS",0.0967268840578104,"hwsd_soil"
"Neotropical",53.1116071428571,73.020896,30.4522482262973,"T_BS",-0.326893579567469,"hwsd_soil"
"Oriental",85.4582300312601,73.020896,30.4522482262973,"T_BS",0.204210440208479,"hwsd_soil"
"Palearctic",69.7885078541037,73.020896,30.4522482262973,"T_BS",-0.053073062485826,"hwsd_soil"
"Panamanian",68.4887361588392,73.020896,30.4522482262973,"T_BS",-0.0744142075731368,"hwsd_soil"
"Saharo-Arabian",96.7502912055912,73.020896,30.4522482262973,"T_BS",0.389616474771466,"hwsd_soil"
"Sino-Japanese",74.6581822547725,73.020896,30.4522482262973,"T_BS",0.0268828469183204,"hwsd_soil"
"",1.19019723865878,1.32469802,0.240121860989573,"T_BULK_DENSITY",-0.280067755569876,"hwsd_soil"
"Afrotropical",1.37437240593956,1.32469802,0.240121860989573,"T_BULK_DENSITY",0.103435784094878,"hwsd_soil"
"Australian",1.43791042995358,1.32469802,0.240121860989573,"T_BULK_DENSITY",0.235739489705382,"hwsd_soil"
"Nearctic",1.22012749382171,1.32469802,0.240121860989573,"T_BULK_DENSITY",-0.217744702101147,"hwsd_soil"
"Neotropical",1.30955233758076,1.32469802,0.240121860989573,"T_BULK_DENSITY",-0.03153749174861,"hwsd_soil"
"Oriental",1.35697100355718,1.32469802,0.240121860989573,"T_BULK_DENSITY",0.0672012606935981,"hwsd_soil"
"Palearctic",1.27710883352511,1.32469802,0.240121860989573,"T_BULK_DENSITY",-0.0990938231920336,"hwsd_soil"
"Panamanian",1.23148911798396,1.32469802,0.240121860989573,"T_BULK_DENSITY",-0.194086664229385,"hwsd_soil"
"Saharo-Arabian",1.3752169481654,1.32469802,0.240121860989573,"T_BULK_DENSITY",0.105194354144204,"hwsd_soil"
"Sino-Japanese",1.33335934686037,1.32469802,0.240121860989573,"T_BULK_DENSITY",0.0180352734746283,"hwsd_soil"
"",0.845364891518738,2.2625826,4.51381285690825,"T_CACO3",-0.15698675968724,"hwsd_soil"
"Afrotropical",2.47102743523277,2.2625826,4.51381285690825,"T_CACO3",0.0230896629790216,"hwsd_soil"
"Australian",2.99029458978698,2.2625826,4.51381285690825,"T_CACO3",0.080609455116558,"hwsd_soil"
"Nearctic",2.30693442005859,2.2625826,4.51381285690825,"T_CACO3",0.0049128997440282,"hwsd_soil"
"Neotropical",0.91477252333094,2.2625826,4.51381285690825,"T_CACO3",-0.1492984001991,"hwsd_soil"
"Oriental",2.81392691602889,2.2625826,4.51381285690825,"T_CACO3",0.0610730144898535,"hwsd_soil"
"Palearctic",1.45711284754743,2.2625826,4.51381285690825,"T_CACO3",-0.0892227677560692,"hwsd_soil"
"Panamanian",1.55693012600229,2.2625826,4.51381285690825,"T_CACO3",-0.0781658983621496,"hwsd_soil"
"Saharo-Arabian",9.73480877499515,2.2625826,4.51381285690825,"T_CACO3",0.827706687436004,"hwsd_soil"
"Sino-Japanese",2.30327770440629,2.2625826,4.51381285690825,"T_CACO3",0.0045078413412741,"hwsd_soil"
"",0.067258382642998,0.1156644,0.809649120073651,"T_CASO4",-0.0298932069194361,"hwsd_soil"
"Afrotropical",0.157718875020603,0.1156644,0.809649120073651,"T_CASO4",0.0259708026464459,"hwsd_soil"
"Australian",0.0718588658943989,0.1156644,0.809649120073651,"T_CASO4",-0.0270521717491747,"hwsd_soil"
"Nearctic",0.0253416474362122,0.1156644,0.809649120073651,"T_CASO4",-0.0557789481421109,"hwsd_soil"
"Neotropical",0.0841001884422111,0.1156644,0.809649120073651,"T_CASO4",-0.0194925250798257,"hwsd_soil"
"Oriental",0.190180015091085,0.1156644,0.809649120073651,"T_CASO4",0.0460172272430229,"hwsd_soil"
"Palearctic",0.0920917070298911,0.1156644,0.809649120073651,"T_CASO4",-0.0145573510707729,"hwsd_soil"
"Panamanian",0.106376479572356,0.1156644,0.809649120073651,"T_CASO4",-0.00573576886417122,"hwsd_soil"
"Saharo-Arabian",0.753678897301495,0.1156644,0.809649120073651,"T_CASO4",0.394006787312668,"hwsd_soil"
"Sino-Japanese",0.0316604634409893,0.1156644,0.809649120073651,"T_CASO4",-0.0518767540631485,"hwsd_soil"
"",45.6824457593688,47.280356,25.0368450528513,"T_CEC_CLAY",-0.0319111740568363,"hwsd_soil"
"Afrotropical",39.6430273153628,47.280356,25.0368450528513,"T_CEC_CLAY",-0.152521786760976,"hwsd_soil"
"Australian",50.2730270293722,47.280356,25.0368450528513,"T_CEC_CLAY",0.0597653383055025,"hwsd_soil"
"Nearctic",50.9355166036562,47.280356,25.0368450528513,"T_CEC_CLAY",0.0729956309579025,"hwsd_soil"
"Neotropical",37.4305231514716,47.280356,25.0368450528513,"T_CEC_CLAY",-0.196706750146353,"hwsd_soil"
"Oriental",42.067155330387,47.280356,25.0368450528513,"T_CEC_CLAY",-0.10411057500672,"hwsd_soil"
"Palearctic",53.8706481308036,47.280356,25.0368450528513,"T_CEC_CLAY",0.131611872759765,"hwsd_soil"
"Panamanian",55.0213822069492,47.280356,25.0368450528513,"T_CEC_CLAY",0.154592685112848,"hwsd_soil"
"Saharo-Arabian",47.2384488448845,47.280356,25.0368450528513,"T_CEC_CLAY",-0.000836909663079481,"hwsd_soil"
"Sino-Japanese",39.2680994116941,47.280356,25.0368450528513,"T_CEC_CLAY",-0.160009309707204,"hwsd_soil"
"",21.8047337278106,16.07195,14.3051941082481,"T_CEC_SOIL",0.200374202699746,"hwsd_soil"
"Afrotropical",12.5861939795322,16.07195,14.3051941082481,"T_CEC_SOIL",-0.121835327577204,"hwsd_soil"
"Australian",14.4814850969673,16.07195,14.3051941082481,"T_CEC_SOIL",-0.0555904691330135,"hwsd_soil"
"Nearctic",21.1634997790544,16.07195,14.3051941082481,"T_CEC_SOIL",0.177961576072521,"hwsd_soil"
"Neotropical",12.3205873115578,16.07195,14.3051941082481,"T_CEC_SOIL",-0.131118901989566,"hwsd_soil"
"Oriental",16.3905357335345,16.07195,14.3051941082481,"T_CEC_SOIL",0.0111353166941949,"hwsd_soil"
"Palearctic",19.0021073617169,16.07195,14.3051941082481,"T_CEC_SOIL",0.102415854672935,"hwsd_soil"
"Panamanian",23.8694158075601,16.07195,14.3051941082481,"T_CEC_SOIL",0.272539671554133,"hwsd_soil"
"Saharo-Arabian",14.0046107551932,16.07195,14.3051941082481,"T_CEC_SOIL",-0.0722583429893776,"hwsd_soil"
"Sino-Japanese",13.7831672469684,16.07195,14.3051941082481,"T_CEC_SOIL",-0.0799983116521259,"hwsd_soil"
"",21.043392504931,22.684046,12.8261986610464,"T_CLAY",-0.0639571216081251,"hwsd_soil"
"Afrotropical",24.2553379583152,22.684046,12.8261986610464,"T_CLAY",0.0612532208427153,"hwsd_soil"
"Australian",23.7057572996659,22.684046,12.8261986610464,"T_CLAY",0.0398290766682456,"hwsd_soil"
"Nearctic",22.6429682001931,22.684046,12.8261986610464,"T_CLAY",-0.00160132401237591,"hwsd_soil"
"Neotropical",25.936445620962,22.684046,12.8261986610464,"T_CLAY",0.126787355588044,"hwsd_soil"
"Oriental",25.8737738493047,22.684046,12.8261986610464,"T_CLAY",0.12434424000433,"hwsd_soil"
"Palearctic",19.3662996066258,22.684046,12.8261986610464,"T_CLAY",-0.129334749954026,"hwsd_soil"
"Panamanian",30.0588010691103,22.684046,12.8261986610464,"T_CLAY",0.287487948066317,"hwsd_soil"
"Saharo-Arabian",21.8458551737527,22.684046,12.8261986610464,"T_CLAY",-0.0326749510278889,"hwsd_soil"
"Sino-Japanese",20.1156201224637,22.684046,12.8261986610464,"T_CLAY",-0.100124204583573,"hwsd_soil"
"",0.408284023668639,0.6545506,3.2506861223379,"T_ECE",-0.0378791687451888,"hwsd_soil"
"Afrotropical",0.778129729243771,0.6545506,3.2506861223379,"T_ECE",0.0190081608301961,"hwsd_soil"
"Australian",0.400057486224999,0.6545506,3.2506861223379,"T_ECE",-0.039144522755702,"hwsd_soil"
"Nearctic",0.400281501121095,0.6545506,3.2506861223379,"T_ECE",-0.0391100661998143,"hwsd_soil"
"Neotropical",0.523049398779612,0.6545506,3.2506861223379,"T_ECE",-0.0202266838863255,"hwsd_soil"
"Oriental",1.45256009485825,0.6545506,3.2506861223379,"T_ECE",0.122744778306114,"hwsd_soil"
"Palearctic",0.402044475367283,0.6545506,3.2506861223379,"T_ECE",-0.038838896640552,"hwsd_soil"
"Panamanian",0.223405880106911,0.6545506,3.2506861223379,"T_ECE",-0.0663159566422564,"hwsd_soil"
"Saharo-Arabian",4.37620364977674,0.6545506,3.2506861223379,"T_ECE",0.572441156991824,"hwsd_soil"
"Sino-Japanese",0.34106135190299,0.6545506,3.2506861223379,"T_ECE",-0.0482189353722575,"hwsd_soil"
"",2.11242603550296,3.595348,6.76661454000748,"T_ESP",-0.109576358733699,"hwsd_soil"
"Afrotropical",3.88727730412502,3.595348,6.76661454000748,"T_ESP",0.0215712970200237,"hwsd_soil"
"Australian",5.47610525402404,3.595348,6.76661454000748,"T_ESP",0.138973281461807,"hwsd_soil"
"Nearctic",2.53537585309569,3.595348,6.76661454000748,"T_ESP",-0.0783236684044319,"hwsd_soil"
"Neotropical",2.73199703876525,3.595348,6.76661454000748,"T_ESP",-0.0637948974431896,"hwsd_soil"
"Oriental",4.49326290826776,3.595348,6.76661454000748,"T_ESP",0.0663489033518057,"hwsd_soil"
"Palearctic",2.47411624608633,3.595348,6.76661454000748,"T_ESP",-0.0828502752214132,"hwsd_soil"
"Panamanian",2.11951126384116,3.595348,6.76661454000748,"T_ESP",-0.109052815660844,"hwsd_soil"
"Saharo-Arabian",9.81741409435061,3.595348,6.76661454000748,"T_ESP",0.459762120153495,"hwsd_soil"
"Sino-Japanese",1.73898427182135,3.595348,6.76661454000748,"T_ESP",-0.137170790297196,"hwsd_soil"
"",13.0098619329389,9.697108,10.6958115744952,"T_GRAVEL",0.154862205166287,"hwsd_soil"
"Afrotropical",9.60192690930341,9.697108,10.6958115744952,"T_GRAVEL",-0.00444945622095466,"hwsd_soil"
"Australian",10.4686754306044,9.697108,10.6958115744952,"T_GRAVEL",0.0360686716118022,"hwsd_soil"
"Nearctic",13.0244349519648,9.697108,10.6958115744952,"T_GRAVEL",0.155543454032931,"hwsd_soil"
"Neotropical",8.28352701005025,9.697108,10.6958115744952,"T_GRAVEL",-0.0660810533218681,"hwsd_soil"
"Oriental",12.7854909992454,9.697108,10.6958115744952,"T_GRAVEL",0.144373476371343,"hwsd_soil"
"Palearctic",7.869878776526,9.697108,10.6958115744952,"T_GRAVEL",-0.0854179793065508,"hwsd_soil"
"Panamanian",5.0950744558992,9.697108,10.6958115744952,"T_GRAVEL",-0.215132508274295,"hwsd_soil"
"Saharo-Arabian",14.8635701805475,9.697108,10.6958115744952,"T_GRAVEL",0.241518006584333,"hwsd_soil"
"Sino-Japanese",10.4579181174211,9.697108,10.6958115744952,"T_GRAVEL",0.0355657965794411,"hwsd_soil"
"",5.30605522682446,2.19489172,5.75379184341218,"T_OC",0.270357669472053,"hwsd_soil"
"Afrotropical",1.00227393278293,2.19489172,5.75379184341218,"T_OC",-0.103637550651277,"hwsd_soil"
"Australian",0.813637251073799,2.19489172,5.75379184341218,"T_OC",-0.120029930393439,"hwsd_soil"
"Nearctic",4.34701085088624,2.19489172,5.75379184341218,"T_OC",0.187017465130435,"hwsd_soil"
"Neotropical",1.32519517229002,2.19489172,5.75379184341218,"T_OC",-0.0755759481206936,"hwsd_soil"
"Oriental",1.51097876468686,2.19489172,5.75379184341218,"T_OC",-0.0594314996028391,"hwsd_soil"
"Palearctic",3.48988794187696,2.19489172,5.75379184341218,"T_OC",0.112534156354619,"hwsd_soil"
"Panamanian",2.89695303550974,2.19489172,5.75379184341218,"T_OC",0.0610085778749159,"hwsd_soil"
"Saharo-Arabian",0.655653756552126,2.19489172,5.75379184341218,"T_OC",-0.13375857220228,"hwsd_soil"
"Sino-Japanese",1.48064233401369,2.19489172,5.75379184341218,"T_OC",-0.0620677116434178,"hwsd_soil"
"",5.9,6.355848,1.31229672145493,"T_PH_H2O",-0.173683280826384,"hwsd_soil"
"Afrotropical",6.45861340445617,6.355848,1.31229672145493,"T_PH_H2O",0.0391547897575443,"hwsd_soil"
"Australian",7.10082975400234,6.355848,1.31229672145493,"T_PH_H2O",0.283846534789932,"hwsd_soil"
"Nearctic",6.40864961293596,6.355848,1.31229672145493,"T_PH_H2O",0.0201180160220997,"hwsd_soil"
"Neotropical",5.64639940775305,6.355848,1.31229672145493,"T_PH_H2O",-0.270307995382473,"hwsd_soil"
"Oriental",6.81763501131831,6.355848,1.31229672145493,"T_PH_H2O",0.175946111793351,"hwsd_soil"
"Palearctic",6.05812638818272,6.355848,1.31229672145493,"T_PH_H2O",-0.11343532562026,"hwsd_soil"
"Panamanian",6.05735013363879,6.355848,1.31229672145493,"T_PH_H2O",-0.113731087444257,"hwsd_soil"
"Saharo-Arabian",7.64494272956707,6.355848,1.31229672145493,"T_PH_H2O",0.49115977678351,"hwsd_soil"
"Sino-Japanese",6.25383599471725,6.355848,1.31229672145493,"T_PH_H2O",-0.0388677360900692,"hwsd_soil"
"",1.42818540433925,1.42622924,0.131007667313941,"T_REF_BULK_DENSITY",0.00746583913505931,"hwsd_soil"
"Afrotropical",1.43012271685222,1.42622924,0.131007667313941,"T_REF_BULK_DENSITY",0.0148597289458068,"hwsd_soil"
"Australian",1.40915885721723,1.42622924,0.131007667313941,"T_REF_BULK_DENSITY",-0.0651503195681689,"hwsd_soil"
"Nearctic",1.41311418798383,1.42622924,0.131007667313941,"T_REF_BULK_DENSITY",-0.0500545207966406,"hwsd_soil"
"Neotropical",1.41736270638909,1.42622924,0.131007667313941,"T_REF_BULK_DENSITY",-0.0338397507287278,"hwsd_soil"
"Oriental",1.38103589522475,1.42622924,0.131007667313941,"T_REF_BULK_DENSITY",-0.172483587036748,"hwsd_soil"
"Palearctic",1.45102477989778,1.42622924,0.131007667313941,"T_REF_BULK_DENSITY",0.0946339264188152,"hwsd_soil"
"Panamanian",1.37268041237113,1.42622924,0.131007667313941,"T_REF_BULK_DENSITY",-0.204372876514716,"hwsd_soil"
"Saharo-Arabian",1.40806154144826,1.42622924,0.131007667313941,"T_REF_BULK_DENSITY",-0.0693383025750752,"hwsd_soil"
"Sino-Japanese",1.44211189818706,1.42622924,0.131007667313941,"T_REF_BULK_DENSITY",0.0606172848990464,"hwsd_soil"
"",41.301775147929,46.6649,20.4313186766681,"T_SAND",-0.131247643310354,"hwsd_soil"
"Afrotropical",52.3048742114805,46.6649,20.4313186766681,"T_SAND",0.138022765459608,"hwsd_soil"
"Australian",46.0628443750271,46.6649,20.4313186766681,"T_SAND",-0.0147336457940038,"hwsd_soil"
"Nearctic",42.8156003993388,46.6649,20.4313186766681,"T_SAND",-0.0942009583810414,"hwsd_soil"
"Neotropical",48.4925744795406,46.6649,20.4313186766681,"T_SAND",0.0447272765029039,"hwsd_soil"
"Oriental",40.7606985016708,46.6649,20.4313186766681,"T_SAND",-0.144488997302744,"hwsd_soil"
"Palearctic",46.1397883272231,46.6649,20.4313186766681,"T_SAND",-0.012850655434604,"hwsd_soil"
"Panamanian",41.9137075219549,46.6649,20.4313186766681,"T_SAND",-0.116272291407964,"hwsd_soil"
"Saharo-Arabian",42.9931081343428,46.6649,20.4313186766681,"T_SAND",-0.0898569476538543,"hwsd_soil"
"Sino-Japanese",43.7158122223556,46.6649,20.4313186766681,"T_SAND",-0.0721707645090022,"hwsd_soil"
"",37.65483234714,30.651054,13.8038729269325,"T_SILT",0.253688888046597,"hwsd_soil"
"Afrotropical",23.4397878302042,30.651054,13.8038729269325,"T_SILT",-0.261204453560493,"hwsd_soil"
"Australian",30.231398325307,30.651054,13.8038729269325,"T_SILT",-0.0152006497348386,"hwsd_soil"
"Nearctic",34.5414314004681,30.651054,13.8038729269325,"T_SILT",0.140916155236319,"hwsd_soil"
"Neotropical",25.5709798994975,30.651054,13.8038729269325,"T_SILT",-0.184009014259718,"hwsd_soil"
"Oriental",33.3655276490245,30.651054,13.8038729269325,"T_SILT",0.0983229005146923,"hwsd_soil"
"Palearctic",34.4939120661511,30.651054,13.8038729269325,"T_SILT",0.13919492328321,"hwsd_soil"
"Panamanian",28.0274914089347,30.651054,13.8038729269325,"T_SILT",-0.0950299457606027,"hwsd_soil"
"Saharo-Arabian",35.1610366919045,30.651054,13.8038729269325,"T_SILT",0.163359323712157,"hwsd_soil"
"Sino-Japanese",36.1685676551807,30.651054,13.8038729269325,"T_SILT",0.199853826690029,"hwsd_soil"
"",13.2883629191321,13.3136068,11.0788559669802,"T_TEB",-0.00113928193231724,"hwsd_soil"
"Afrotropical",10.6851466159217,13.3136068,11.0788559669802,"T_TEB",-0.118625072476446,"hwsd_soil"
"Australian",18.0568310989631,13.3136068,11.0788559669802,"T_TEB",0.214066520636244,"hwsd_soil"
"Nearctic",15.2122109294447,13.3136068,11.0788559669802,"T_TEB",0.0856859289038216,"hwsd_soil"
"Neotropical",7.966256505743,13.3136068,11.0788559669802,"T_TEB",-0.241331339183144,"hwsd_soil"
"Oriental",15.7462541769969,13.3136068,11.0788559669802,"T_TEB",0.109787842004952,"hwsd_soil"
"Palearctic",13.0732304851615,13.3136068,11.0788559669802,"T_TEB",-0.0108484267488868,"hwsd_soil"
"Panamanian",15.9996181748759,13.3136068,11.0788559669802,"T_TEB",0.121222416054572,"hwsd_soil"
"Saharo-Arabian",18.8932343234323,13.3136068,11.0788559669802,"T_TEB",0.251814245986321,"hwsd_soil"
"Sino-Japanese",12.138576059551,13.3136068,11.0788559669802,"T_TEB",-0.053030328399933,"hwsd_soil"
"Australia",1.04402635127731,0.962153097484761,1.73179904411758,"lrr",0.0236382085065383,"marine_herbivory"
"Caribbean and Gulf of Mexico",0.556588023318681,0.962153097484761,1.73179904411758,"lrr",-0.117093572589633,"marine_herbivory"
"Gulf of California",0.411338420171429,0.962153097484761,1.73179904411758,"lrr",-0.159029616970944,"marine_herbivory"
"Indo-Pacific seas and Indian Ocean",0.103252098578125,0.962153097484761,1.73179904411758,"lrr",-0.247979406682338,"marine_herbivory"
"Inner baltic sea",-0.0217640394067797,0.962153097484761,1.73179904411758,"lrr",-0.284073703653325,"marine_herbivory"
"Mediterranean",0.591377895756944,0.962153097484761,1.73179904411758,"lrr",-0.1070491414657,"marine_herbivory"
"Mid-south Tropical Pacific",0.018576386,0.962153097484761,1.73179904411758,"lrr",-0.272426732965876,"marine_herbivory"
"Mid-tropical North Pacific Ocean",0.864998334909091,0.962153097484761,1.73179904411758,"lrr",-0.0280502414254344,"marine_herbivory"
"N American Boreal",-0.061094878,0.962153097484761,1.73179904411758,"lrr",-0.295429189362483,"marine_herbivory"
"N Pacific",1.31870260570199,0.962153097484761,1.73179904411758,"lrr",0.102941940471766,"marine_herbivory"
"NE Atlantic",2.16085336904494,0.962153097484761,1.73179904411758,"lrr",0.346085267696566,"marine_herbivory"
"NW Pacific",0.451346488673469,0.962153097484761,1.73179904411758,"lrr",-0.147478603405618,"marine_herbivory"
"New Zealand",1.7268915526,0.962153097484761,1.73179904411758,"lrr",0.220793069990665,"marine_herbivory"
"Offshore S Atlantic",0.764388044,0.962153097484761,1.73179904411758,"lrr",-0.057098152974651,"marine_herbivory"
"Offshore W Pacific",1.62882560725,0.962153097484761,1.73179904411758,"lrr",0.192479754515898,"marine_herbivory"
"Offshore and NW North Atlantic",1.84390452569231,0.962153097484761,1.73179904411758,"lrr",0.254576716392875,"marine_herbivory"
"Rio de la Plata",1.01205509253846,0.962153097484761,1.73179904411758,"lrr",0.0144075593595006,"marine_herbivory"
"S Africa",1.54169037354545,0.962153097484761,1.73179904411758,"lrr",0.167322322422227,"marine_herbivory"
"Southern Ocean",0.600554394,0.962153097484761,1.73179904411758,"lrr",-0.104399729493155,"marine_herbivory"
"Afrotropical",0.411399455849867,-0.0332693084013474,0.498282159582143,"decomposition.constant..k.",0.446201771125131,"decomp"
"Australian",0.0885792352003031,-0.0332693084013474,0.498282159582143,"decomposition.constant..k.",0.122268619554664,"decomp"
"Nearctic",-0.512052531636991,-0.0332693084013474,0.498282159582143,"decomposition.constant..k.",-0.480433840574534,"decomp"
"Neotropical",0.476585962013024,-0.0332693084013474,0.498282159582143,"decomposition.constant..k.",0.511613009426159,"decomp"
"Oriental",0.260796186712995,-0.0332693084013474,0.498282159582143,"decomposition.constant..k.",0.29507929338765,"decomp"
"Palearctic",-0.169651950415673,-0.0332693084013474,0.498282159582143,"decomposition.constant..k.",-0.136852824641259,"decomp"
"Sino-Japanese",0.212031569172952,-0.0332693084013474,0.498282159582143,"decomposition.constant..k.",0.246146558588419,"decomp"
"Afrotropical",8827.43788016599,7117.46523018281,7192.44571415614,"gpp",0.118872822815863,"terrestrial_prod"
"Australian",5384.60861259914,7117.46523018281,7192.44571415614,"gpp",-0.120463656345231,"terrestrial_prod"
"Nearctic",6314.64103120414,7117.46523018281,7192.44571415614,"gpp",-0.0558102369405831,"terrestrial_prod"
"Neotropical",16611.4197542533,7117.46523018281,7192.44571415614,"gpp",0.659994868323062,"terrestrial_prod"
"Oceanina",0,7117.46523018281,7192.44571415614,"gpp",-0.49478755301373,"terrestrial_prod"
"Oriental",11809.7980438805,7117.46523018281,7192.44571415614,"gpp",0.326198695143593,"terrestrial_prod"
"Palearctic",4829.18750173079,7117.46523018281,7192.44571415614,"gpp",-0.159075078171827,"terrestrial_prod"
"Panamanian",22079.2557836429,7117.46523018281,7192.44571415614,"gpp",1.04010451716113,"terrestrial_prod"
"Saharo-Arabian",628.855147712128,7117.46523018281,7192.44571415614,"gpp",-0.451071189157523,"terrestrial_prod"
"Sino-Japanese",6767.09838670252,7117.46523018281,7192.44571415614,"gpp",-0.0243565858822332,"terrestrial_prod"
"Afrotropical",4012.51405548292,3569.05650641466,3423.7750950687,"npp",0.0647614894020019,"terrestrial_prod"
"Australian",2607.48710601719,3569.05650641466,3423.7750950687,"npp",-0.14042531616379,"terrestrial_prod"
"Nearctic",3554.77734669134,3569.05650641466,3423.7750950687,"npp",-0.00208529464214562,"terrestrial_prod"
"Neotropical",7542.04875236295,3569.05650641466,3423.7750950687,"npp",0.580206370983688,"terrestrial_prod"
"Oceanina",0,3569.05650641466,3423.7750950687,"npp",-0.521216552973238,"terrestrial_prod"
"Oriental",5099.92138514407,3569.05650641466,3423.7750950687,"npp",0.223563878499836,"terrestrial_prod"
"Palearctic",2766.22603889163,3569.05650641466,3423.7750950687,"npp",-0.117243458642969,"terrestrial_prod"
"Panamanian",9167.13261648746,3569.05650641466,3423.7750950687,"npp",0.817529766796855,"terrestrial_prod"
"Saharo-Arabian",332.012161261662,3569.05650641466,3423.7750950687,"npp",-0.472730283863467,"terrestrial_prod"
"Sino-Japanese",3465.49150574432,3569.05650641466,3423.7750950687,"npp",-0.0151243872326057,"terrestrial_prod"
"Australia",522.586916082123,397.684450760057,382.971401740272,"mean_npp",0.163070225027891,"marine_prod"
"Caribbean and Gulf of Mexico",562.703699806025,397.684450760057,382.971401740272,"mean_npp",0.21544591619126,"marine_prod"
"Chile",848.111789114447,397.684450760057,382.971401740272,"mean_npp",0.588069156479555,"marine_prod"
"Gulf of California",591.439802836828,397.684450760057,382.971401740272,"mean_npp",0.252963212391736,"marine_prod"
"Gulfs of Aqaba-Aden-Suez-Red Sea",682.449371923307,397.684450760057,382.971401740272,"mean_npp",0.371783532489947,"marine_prod"
"Indo-Pacific seas and Indian Ocean",409.634310608654,397.684450760057,382.971401740272,"mean_npp",0.0156015041779819,"marine_prod"
"Mediterranean",415.503650501995,397.684450760057,382.971401740272,"mean_npp",0.0232643999799526,"marine_prod"
"Mid-south Tropical Pacific",223.035952784811,397.684450760057,382.971401740272,"mean_npp",-0.228017675969564,"marine_prod"
"Mid-tropical North Pacific Ocean",262.403137156969,397.684450760057,382.971401740272,"mean_npp",-0.176620647114057,"marine_prod"
"N Pacific",523.818665026581,397.684450760057,382.971401740272,"mean_npp",0.164678372449423,"marine_prod"
"NE Atlantic",1329.02509691892,397.684450760057,382.971401740272,"mean_npp",1.21594020066084,"marine_prod"
"NW Pacific",1066.14695072951,397.684450760057,382.971401740272,"mean_npp",0.872731615117825,"marine_prod"
"New Zealand",567.730569443544,397.684450760057,382.971401740272,"mean_npp",0.222008899242574,"marine_prod"
"Offshore Indian Ocean",353.673657623971,397.684450760057,382.971401740272,"mean_npp",-0.0574596339780135,"marine_prod"
"Offshore S Atlantic",394.786922962861,397.684450760057,382.971401740272,"mean_npp",-0.00378295583433825,"marine_prod"
"Offshore W Pacific",358.761820758829,397.684450760057,382.971401740272,"mean_npp",-0.0508166273308636,"marine_prod"
"Offshore and NW North Atlantic",455.022057797345,397.684450760057,382.971401740272,"mean_npp",0.0748588625374353,"marine_prod"
"Offshore mid-E Pacific",377.01727930288,397.684450760057,382.971401740272,"mean_npp",-0.0269826563592768,"marine_prod"
"Rio de la Plata",1373.20306925842,397.684450760057,382.971401740272,"mean_npp",1.27361810054939,"marine_prod"
"S Africa",844.851492246392,397.684450760057,382.971401740272,"mean_npp",0.583812576414778,"marine_prod"
"South-east Pacific",303.31085097381,397.684450760057,382.971401740272,"mean_npp",-0.123212333032442,"marine_prod"
"Southern Ocean",286.78115932381,397.684450760057,382.971401740272,"mean_npp",-0.144793176373337,"marine_prod"
"Tasman Sea",427.266155806049,397.684450760057,382.971401740272,"mean_npp",0.0386212977151405,"marine_prod"
"Tropical E Atlantic",971.409379734201,397.684450760057,382.971401740272,"mean_npp",0.749044088366733,"marine_prod"
"Afrotropical",443.678801258562,106.388391,447.891290987818,"sumfire",0.376531556926094,"fire"
"Australian",285.061901294575,106.388391,447.891290987818,"sumfire",0.199460799852251,"fire"
"Nearctic",11.3022080418102,106.388391,447.891290987818,"sumfire",-0.106148729470134,"fire"
"Neotropical",73.8004782627429,106.388391,447.891290987818,"sumfire",-0.0363792658988579,"fire"
"Oriental",44.459725577232,106.388391,447.891290987818,"sumfire",-0.069133589633084,"fire"
"Palearctic",27.8937447563309,106.388391,447.891290987818,"sumfire",-0.087626894988905,"fire"
"Panamanian",34.8422381495358,106.388391,447.891290987818,"sumfire",-0.0798699977986514,"fire"
"Saharo-Arabian",3.03917963224894,106.388391,447.891290987818,"sumfire",-0.115373097721789,"fire"
"Sino-Japanese",11.4075801101905,106.388391,447.891290987818,"sumfire",-0.106031098171535,"fire"
"Afrotropical",423.393389053125,598.022874776602,195.365906820931,"stp.0.10cm",-0.446929273805023,"total_p"
"Australian",431.572021563218,598.022874776602,195.365906820931,"stp.0.10cm",-0.425997698170413,"total_p"
"Madagascan",436.243234481811,598.022874776602,195.365906820931,"stp.0.10cm",-0.414042662118818,"total_p"
"Nearctic",691.466134838021,598.022874776602,195.365906820931,"stp.0.10cm",0.239149352059333,"total_p"
"Neotropical",437.222371885748,598.022874776602,195.365906820931,"stp.0.10cm",-0.411536755587149,"total_p"
"Oceanina",576.964937563296,598.022874776602,195.365906820931,"stp.0.10cm",-0.0538935824473396,"total_p"
"Oriental",500.396707543674,598.022874776602,195.365906820931,"stp.0.10cm",-0.24985466712575,"total_p"
"Palearctic",716.177934357451,598.022874776602,195.365906820931,"stp.0.10cm",0.302394264955215,"total_p"
"Panamanian",634.54162897258,598.022874776602,195.365906820931,"stp.0.10cm",0.0934624540950511,"total_p"
"Saharo-Arabian",462.093509231237,598.022874776602,195.365906820931,"stp.0.10cm",-0.347884049364753,"total_p"
"Sino-Japanese",690.555066189236,598.022874776602,195.365906820931,"stp.0.10cm",0.236817653904802,"total_p"
"Afrotropical",27.007054940262,30.2568237111649,19.0723067393531,"secondary_p",-0.0851960073659436,"soil_p"
"Australian",26.444655160676,30.2568237111649,19.0723067393531,"secondary_p",-0.0999398919749707,"soil_p"
"Madagascan",30.0713433992295,30.2568237111649,19.0723067393531,"secondary_p",-0.00486255581116163,"soil_p"
"Nearctic",35.4496277736816,30.2568237111649,19.0723067393531,"secondary_p",0.136134661986169,"soil_p"
"Neotropical",23.2659210262068,30.2568237111649,19.0723067393531,"secondary_p",-0.183273653798083,"soil_p"
"Oceanina",36.1138547874359,30.2568237111649,19.0723067393531,"secondary_p",0.153548051536571,"soil_p"
"Oriental",35.3916168150522,30.2568237111649,19.0723067393531,"secondary_p",0.134613845458252,"soil_p"
"Palearctic",33.0090924560593,30.2568237111649,19.0723067393531,"secondary_p",0.0721535360800249,"soil_p"
"Panamanian",44.1963511011308,30.2568237111649,19.0723067393531,"secondary_p",0.365438947172646,"soil_p"
"Saharo-Arabian",25.0631645546017,30.2568237111649,19.0723067393531,"secondary_p",-0.136157079149916,"soil_p"
"Sino-Japanese",30.1291884729079,30.2568237111649,19.0723067393531,"secondary_p",-0.00334608812665751,"soil_p"
"Afrotropical",66.6560632861759,84.0134127042617,75.1383577904926,"organic_p",-0.115502587017426,"soil_p"
"Australian",52.1178302084747,84.0134127042617,75.1383577904926,"organic_p",-0.212245672075513,"soil_p"
"Madagascan",85.5315993122323,84.0134127042617,75.1383577904926,"organic_p",0.0101026070612551,"soil_p"
"Nearctic",110.859268618877,84.0134127042617,75.1383577904926,"organic_p",0.178642817756736,"soil_p"
"Neotropical",60.4937218156324,84.0134127042617,75.1383577904926,"organic_p",-0.156509215667242,"soil_p"
"Oceanina",83.759512008912,84.0134127042617,75.1383577904926,"organic_p",-0.00168955446203364,"soil_p"
"Oriental",86.383339832758,84.0134127042617,75.1383577904926,"organic_p",0.0157704213812099,"soil_p"
"Palearctic",97.3429227006564,84.0134127042617,75.1383577904926,"organic_p",0.0886997692547478,"soil_p"
"Panamanian",163.554586076861,84.0134127042617,75.1383577904926,"organic_p",0.529298055690696,"soil_p"
"Saharo-Arabian",60.8332386680522,84.0134127042617,75.1383577904926,"organic_p",-0.154249937833632,"soil_p"
"Sino-Japanese",100.414355356043,84.0134127042617,75.1383577904926,"organic_p",0.109138282590046,"soil_p"
"Afrotropical",32.9551984531991,33.107595849402,27.0228956935496,"lab_inorg_p",-0.00281978285989615,"soil_p"
"Australian",32.800442423008,33.107595849402,27.0228956935496,"lab_inorg_p",-0.00568320711957045,"soil_p"
"Madagascan",35.7095163953367,33.107595849402,27.0228956935496,"lab_inorg_p",0.0481428891899956,"soil_p"
"Nearctic",34.9467323527052,33.107595849402,27.0228956935496,"lab_inorg_p",0.0340292269962444,"soil_p"
"Neotropical",26.6030076859586,33.107595849402,27.0228956935496,"lab_inorg_p",-0.120353278146207,"soil_p"
"Oceanina",27.4172734754631,33.107595849402,27.0228956935496,"lab_inorg_p",-0.105287058027929,"soil_p"
"Oriental",31.0362409096694,33.107595849402,27.0228956935496,"lab_inorg_p",-0.0383259248605807,"soil_p"
"Palearctic",31.8152253987844,33.107595849402,27.0228956935496,"lab_inorg_p",-0.0239125085866744,"soil_p"
"Panamanian",53.748040461976,33.107595849402,27.0228956935496,"lab_inorg_p",0.381906603323435,"soil_p"
"Saharo-Arabian",44.5172903444691,33.107595849402,27.0228956935496,"lab_inorg_p",0.211111618541137,"soil_p"
"Sino-Japanese",37.3631562986574,33.107595849402,27.0228956935496,"lab_inorg_p",0.0787399044409446,"soil_p"
"Afrotropical",0.895850233919543,1.44177775706402,3.21408593164356,"total_n",-0.0849273377804985,"soil_n"
"Australian",1.10190721557312,1.44177775706402,3.21408593164356,"total_n",-0.0528720371388925,"soil_n"
"Madagascan",2.05757281553398,1.44177775706402,3.21408593164356,"total_n",0.0957962966091364,"soil_n"
"Nearctic",1.81035229100323,1.44177775706402,3.21408593164356,"total_n",0.0573373801724611,"soil_n"
"Neotropical",1.17972595302358,1.44177775706402,3.21408593164356,"total_n",-0.0407661477654454,"soil_n"
"Oceanina",2.18772357723577,1.44177775706402,3.21408593164356,"total_n",0.116043229091623,"soil_n"
"Oriental",1.13933595913343,1.44177775706402,3.21408593164356,"total_n",-0.0470494262385719,"soil_n"
"Palearctic",2.42184219382474,1.44177775706402,3.21408593164356,"total_n",0.152463944275994,"soil_n"
"Panamanian",1.50998593530239,1.44177775706402,3.21408593164356,"total_n",0.0106108205706075,"soil_n"
"Saharo-Arabian",1.28302267005522,1.44177775706402,3.21408593164356,"total_n",-0.024696770774829,"soil_n"
"Sino-Japanese",1.48780487804878,1.44177775706402,3.21408593164356,"total_n",0.00716021941597875,"soil_n"
